[
	{
		'name': 'id',
		'title': 'ID',
		'align': 'right',
		'data_type': 'integer',
		'onclick': null,
		'dblink': null,
		'class': 'xl',
		'searchable': true,
		'filter': null,
		'sort_rank': null,
		'sort_order': null,
		'show': 1,
		'order': 0,
		'width': 30,
	},
	{
		'name': 'numero',
		'title': 'N°',
		'align': 'center',
		'data_type': 'text',
		'onclick': null,
		'dblink': null,
		'class': 'sm',
		'searchable': true,
		'filter': null,
		'sort_rank': null,
		'sort_order': null,
		'show': 1,
		'order': 1,
		'width': 50,
	},
	{
		'name': 'nom',
		'title': 'NOM',
		'align': 'left',
		'data_type': 'text',
		'onclick': 'dossier',
		'dblink': null,
		'class': 'xs',
		'searchable': true,
		'filter': null,
		'sort_rank': null,
		'sort_order': null,
		'show': 1,
		'order': 2,
		'width': 300,
	},
	{
		'name': 'rg',
		'title': 'RG',
		'align': 'left',
		'data_type': 'text',
		'onclick': null,
		'dblink': null,
		'class': 'md',
		'searchable': true,
		'filter': null,
		'sort_rank': null,
		'sort_order': null,
		'show': 1,
		'order': 3,
		'width': 80,
	},
	{
		'name': 'date_ouverture',
		'title': 'OUVERTURE',
		'align': 'center',
		'data_type': 'date',
		'onclick': null,
		'dblink': null,
		'class': 'md',
		'searchable': true,
		'filter': null,
		'sort_rank': null,
		'sort_order': null,
		'show': 1,
		'order': 4,
		'width': 50,
	},
	{
		'name': 'date_classement',
		'title': 'CLASSEMENT',
		'align': 'center',
		'data_type': 'date',
		'onclick': null,
		'dblink': null,
		'class': 'lg',
		'searchable': true,
		'filter': null,
		'sort_rank': null,
		'sort_order': null,
		'show': 1,
		'order': 5,
		'width': 50,
	},

	{
		'name': 'numero_archive',
		'title': 'ARCHIVE',
		'align': 'right',
		'data_type': 'integer',
		'onclick': null,
		'dblink': null,
		'class': 'md',
		'searchable': true,
		'filter': null,
		'sort_rank': null,
		'sort_order': null,
		'show': 1,
		'order': 6,
		'width': 50,
	},
	{
		'name': 'domaine',
		'title': 'DOMAINE',
		'align': 'left',
		'data_type': 'text',
		'onclick': null,
		'dblink': 'domaines',
		'class': 'lg',
		'searchable': true,
		'filter': null,
		'sort_rank': null,
		'sort_order': null,
		'show': 1,
		'order': 7,
		'width': 150,
	},
	{
		'name': 'sous_domaine',
		'title': 'SOUS DOMAINE',
		'align': 'left',
		'data_type': 'text',
		'onclick': null,
		'dblink': 'sous_domaines',
		'class': 'lg',
		'searchable': true,
		'filter': null,
		'sort_rank': null,
		'sort_order': null,
		'show': 1,
		'order': 8,
		'width': 150,
	},
	{
		'name': 'conseil',
		'title': 'CONSEIL',
		'align': 'center',
		'data_type': 'truefalse',
		'onclick': null,
		'dblink': null,
		'class': 'xl',
		'searchable': true,
		'filter': null,
		'sort_rank': null,
		'sort_order': null,
		'show': 1,
		'order': 9,
		'width': 50,
	},
	{
		'name': 'contentieux',
		'title': 'CONTENTIEUX',
		'align': 'center',
		'data_type': 'truefalse',
		'onclick': null,
		'dblink': null,
		'class': 'xl',
		'searchable': true,
		'filter': null,
		'sort_rank': null,
		'sort_order': null,
		'show': 1,
		'order': 9,
		'width': 50,
	},
	{
		'name': 'aj',
		'title': 'AJ',
		'align': 'center',
		'data_type': 'truefalse',
		'onclick': null,
		'dblink': null,
		'class': 'xl',
		'searchable': true,
		'filter': null,
		'sort_rank': null,
		'sort_order': null,
		'show': 1,
		'order': 10,
		'width': 50,
	},
	{
		'name': 'id',
		'title': '<img src="/modules/fichiers/icon.svg" style="width: 16px"/>',
		'align': 'center',
		'data_type': 'text',
		'onclick': 'folder',
		'dblink': null,
		'class': 'sm',
		'searchable': false,
		'filter': null,
		'sort_rank': null,
		'sort_order': null,
		'show': 1,
		'order': 11,
		'width': 50,
	},
	{
		'name': 'id',
		'title': '<img src="/modules/emails/icon.svg" style="width: 16px"/>',
		'align': 'center',
		'data_type': 'text',
		'onclick': 'emails',
		'dblink': null,
		'class': 'sm',
		'searchable': false,
		'filter': null,
		'sort_rank': null,
		'sort_order': null,
		'show': 1,
		'order': 12,
		'width': 50,
	},
];