<?xml version="1.0" encoding="UTF-8" standalone="no"?>
<!-- Created with Inkscape (http://www.inkscape.org/) --><svg height="48px" id="svg4198" inkscape:output_extension="org.inkscape.output.svg.inkscape" inkscape:version="0.46" sodipodi:docbase="/home/jimmac/src/cvs/tango-icon-theme/scalable/actions" sodipodi:docname="format-justify-fill.svg" sodipodi:version="0.32" width="48px" xmlns="http://www.w3.org/2000/svg" xmlns:cc="http://creativecommons.org/ns#" xmlns:dc="http://purl.org/dc/elements/1.1/" xmlns:inkscape="http://www.inkscape.org/namespaces/inkscape" xmlns:rdf="http://www.w3.org/1999/02/22-rdf-syntax-ns#" xmlns:sodipodi="http://sodipodi.sourceforge.net/DTD/sodipodi-0.dtd" xmlns:svg="http://www.w3.org/2000/svg" xmlns:xlink="http://www.w3.org/1999/xlink">
  <metadata>
    <rdf:RDF xmlns:cc="http://web.resource.org/cc/" xmlns:dc="http://purl.org/dc/elements/1.1/" xmlns:rdf="http://www.w3.org/1999/02/22-rdf-syntax-ns#">
      <cc:Work rdf:about="">
        <dc:title>Justify Center</dc:title>
        <dc:description></dc:description>
        <dc:subject>
          <rdf:Bag>
            <rdf:li>justify</rdf:li>
            <rdf:li>format</rdf:li>
            <rdf:li>center</rdf:li>
          </rdf:Bag>
        </dc:subject>
        <dc:publisher>
          <cc:Agent rdf:about="http://www.openclipart.org/">
            <dc:title>Open Clip Art Library, Source: Tango Icon Library, Source: Tango Icon Library, Source: Tango Icon Library, Source: Tango Icon Library</dc:title>
          </cc:Agent>
        </dc:publisher>
        <dc:creator>
          <cc:Agent>
            <dc:title>Andreas Nilsson</dc:title>
          </cc:Agent>
        </dc:creator>
        <dc:rights>
          <cc:Agent>
            <dc:title>Andreas Nilsson</dc:title>
          </cc:Agent>
        </dc:rights>
        <dc:date>2005-10-29</dc:date>
        <dc:format>image/svg+xml</dc:format>
        <dc:type rdf:resource="http://purl.org/dc/dcmitype/StillImage"/>
        <cc:license rdf:resource="http://en.wikipedia.org/wiki/Public_domain"/>
        <dc:language>en</dc:language>
      </cc:Work>
    </rdf:RDF>
  </metadata>
  <defs id="defs4200">
    <inkscape:perspective id="perspective49" inkscape:persp3d-origin="24 : 16 : 1" inkscape:vp_x="0 : 24 : 1" inkscape:vp_y="0 : 1000 : 0" inkscape:vp_z="48 : 24 : 1" sodipodi:type="inkscape:persp3d"/>
    <radialGradient cx="605.71429" cy="486.64789" fx="605.71429" fy="486.64789" gradientTransform="matrix(-2.774389,0,0,1.969706,112.7623,-872.8854)" gradientUnits="userSpaceOnUse" id="radialGradient5031" inkscape:collect="always" r="117.14286" xlink:href="#linearGradient5060"/>
    <linearGradient id="linearGradient5060" inkscape:collect="always">
      <stop id="stop5062" offset="0" style="stop-color:black;stop-opacity:1;"/>
      <stop id="stop5064" offset="1" style="stop-color:black;stop-opacity:0;"/>
    </linearGradient>
    <radialGradient cx="605.71429" cy="486.64789" fx="605.71429" fy="486.64789" gradientTransform="matrix(2.774389,0,0,1.969706,-1891.633,-872.8854)" gradientUnits="userSpaceOnUse" id="radialGradient5029" inkscape:collect="always" r="117.14286" xlink:href="#linearGradient5060"/>
    <linearGradient id="linearGradient5048">
      <stop id="stop5050" offset="0" style="stop-color:black;stop-opacity:0;"/>
      <stop id="stop5056" offset="0.5" style="stop-color:black;stop-opacity:1;"/>
      <stop id="stop5052" offset="1" style="stop-color:black;stop-opacity:0;"/>
    </linearGradient>
    <linearGradient gradientTransform="matrix(2.774389,0,0,1.969706,-1892.179,-872.8854)" gradientUnits="userSpaceOnUse" id="linearGradient5027" inkscape:collect="always" x1="302.85715" x2="302.85715" xlink:href="#linearGradient5048" y1="366.64789" y2="609.50507"/>
    <linearGradient id="linearGradient3558" inkscape:collect="always">
      <stop id="stop3560" offset="0" style="stop-color:#000000;stop-opacity:1;"/>
      <stop id="stop3562" offset="1" style="stop-color:#000000;stop-opacity:0;"/>
    </linearGradient>
    <radialGradient cx="22.571428" cy="30.857143" fx="22.571428" fy="30.857143" gradientTransform="matrix(1.000000,0.000000,0.000000,0.651376,4.638648e-15,10.75754)" gradientUnits="userSpaceOnUse" id="radialGradient3564" inkscape:collect="always" r="15.571428" xlink:href="#linearGradient3558"/>
    <linearGradient id="linearGradient15218">
      <stop id="stop15220" offset="0" style="stop-color:#f8f8f7;stop-opacity:1;"/>
      <stop id="stop2269" offset="0.59928656" style="stop-color:#e8e8e8;stop-opacity:1;"/>
      <stop id="stop15222" offset="1" style="stop-color:#e2e2de;stop-opacity:1;"/>
    </linearGradient>
    <linearGradient gradientTransform="matrix(1.060837,0.000000,0.000000,0.987595,4.641161,4.108291)" gradientUnits="userSpaceOnUse" id="linearGradient15224" inkscape:collect="always" x1="22.308331" x2="35.785294" xlink:href="#linearGradient15218" y1="18.992140" y2="39.498238"/>
    <linearGradient id="linearGradient2259" inkscape:collect="always">
      <stop id="stop2261" offset="0" style="stop-color:#ffffff;stop-opacity:1;"/>
      <stop id="stop2263" offset="1" style="stop-color:#ffffff;stop-opacity:0;"/>
    </linearGradient>
    <linearGradient gradientTransform="matrix(0.993566,0.000000,0.000000,1.000000,6.219859,4.033411)" gradientUnits="userSpaceOnUse" id="linearGradient2265" inkscape:collect="always" x1="26.076092" x2="30.811172" xlink:href="#linearGradient2259" y1="26.696676" y2="42.007351"/>
    <linearGradient id="linearGradient2216" inkscape:collect="always">
      <stop id="stop2218" offset="0" style="stop-color:#000000;stop-opacity:1;"/>
      <stop id="stop2220" offset="1" style="stop-color:#000000;stop-opacity:0;"/>
    </linearGradient>
    <linearGradient gradientTransform="translate(6.161836,4.033411)" gradientUnits="userSpaceOnUse" id="linearGradient2222" inkscape:collect="always" x1="36.8125" x2="39.0625" xlink:href="#linearGradient2216" y1="39.15625" y2="42.0625"/>
    <linearGradient id="linearGradient2224">
      <stop id="stop2226" offset="0" style="stop-color:#5E79B0;stop-opacity:1;"/>
      <stop id="stop2228" offset="1" style="stop-color:#EBF1FF;stop-opacity:1;"/>
    </linearGradient>
    <linearGradient gradientTransform="matrix(1.342704,0.000000,0.000000,1.235378,-8.219611,-6.577189)" gradientUnits="userSpaceOnUse" id="linearGradient2240" inkscape:collect="always" x1="20.794008" x2="35.596001" xlink:href="#linearGradient15218" y1="18.378813" y2="39.60046"/>
  </defs>
  <sodipodi:namedview bordercolor="#bebebe" borderopacity="1.0000000" id="base" inkscape:current-layer="layer1" inkscape:cx="50.477879" inkscape:cy="12.80998" inkscape:document-units="px" inkscape:grid-bbox="true" inkscape:pageopacity="0.0" inkscape:pageshadow="2" inkscape:showpageshadow="false" inkscape:window-height="818" inkscape:window-width="1280" inkscape:window-x="154" inkscape:window-y="30" inkscape:zoom="4" pagecolor="#ffffff" showgrid="true"/>
  <g id="layer1" inkscape:groupmode="layer" inkscape:label="Layer 1">
    <g id="g5022" style="display:inline" transform="matrix(2.330573e-2,0,0,1.227058e-2,44.47891,44.41691)">
      <rect height="478.35718" id="rect4173" style="opacity:0.40206185;color:black;fill:url(#linearGradient5027);fill-opacity:1;fill-rule:nonzero;stroke:none;stroke-width:1;stroke-linecap:round;stroke-linejoin:miter;marker:none;marker-start:none;marker-mid:none;marker-end:none;stroke-miterlimit:4;stroke-dasharray:none;stroke-dashoffset:0;stroke-opacity:1;visibility:visible;display:inline;overflow:visible" width="1339.6335" x="-1559.2523" y="-150.69685"/>
      <path d="M -219.61876,-150.68038 C -219.61876,-150.68038 -219.61876,327.65041 -219.61876,327.65041 C -76.744594,328.55086 125.78146,220.48075 125.78138,88.454235 C 125.78138,-43.572302 -33.655436,-150.68036 -219.61876,-150.68038 z " id="path5058" sodipodi:nodetypes="cccc" style="opacity:0.40206185;color:black;fill:url(#radialGradient5029);fill-opacity:1;fill-rule:nonzero;stroke:none;stroke-width:1;stroke-linecap:round;stroke-linejoin:miter;marker:none;marker-start:none;marker-mid:none;marker-end:none;stroke-miterlimit:4;stroke-dasharray:none;stroke-dashoffset:0;stroke-opacity:1;visibility:visible;display:inline;overflow:visible"/>
      <path d="M -1559.2523,-150.68038 C -1559.2523,-150.68038 -1559.2523,327.65041 -1559.2523,327.65041 C -1702.1265,328.55086 -1904.6525,220.48075 -1904.6525,88.454235 C -1904.6525,-43.572302 -1745.2157,-150.68036 -1559.2523,-150.68038 z " id="path5018" sodipodi:nodetypes="cccc" style="opacity:0.40206185;color:black;fill:url(#radialGradient5031);fill-opacity:1;fill-rule:nonzero;stroke:none;stroke-width:1;stroke-linecap:round;stroke-linejoin:miter;marker:none;marker-start:none;marker-mid:none;marker-end:none;stroke-miterlimit:4;stroke-dasharray:none;stroke-dashoffset:0;stroke-opacity:1;visibility:visible;display:inline;overflow:visible"/>
    </g>
    <rect height="45.003101" id="rect4238" rx="0.56650788" ry="0.56650823" style="opacity:1;fill:url(#linearGradient2240);fill-opacity:1;fill-rule:evenodd;stroke:#5E79B0;stroke-width:0.99999976;stroke-linecap:butt;stroke-linejoin:miter;stroke-miterlimit:4;stroke-dasharray:none;stroke-dashoffset:0;stroke-opacity:1" width="38.996792" x="4.5016017" y="1.4968988"/>
    <rect height="2" id="rect4248" style="opacity:1;color:#000000;fill:#5E79B0;fill-opacity:1;fill-rule:evenodd;stroke:none;stroke-width:1;stroke-linecap:butt;stroke-linejoin:miter;marker:none;marker-start:none;marker-mid:none;marker-end:none;stroke-miterlimit:4;stroke-dasharray:none;stroke-dashoffset:0;stroke-opacity:1;visibility:visible;display:inline;overflow:visible" transform="scale(-1.000000,1.000000)" width="30" x="-39" y="10"/>
    <rect height="2" id="rect4250" style="opacity:1;color:#000000;fill:#5E79B0;fill-opacity:1;fill-rule:evenodd;stroke:none;stroke-width:1;stroke-linecap:butt;stroke-linejoin:miter;marker:none;marker-start:none;marker-mid:none;marker-end:none;stroke-miterlimit:4;stroke-dasharray:none;stroke-dashoffset:0;stroke-opacity:1;visibility:visible;display:inline;overflow:visible" transform="scale(-1.000000,1.000000)" width="30" x="-39" y="16"/>
    <rect height="2" id="rect4252" style="opacity:1;color:#000000;fill:#5E79B0;fill-opacity:1;fill-rule:evenodd;stroke:none;stroke-width:1;stroke-linecap:butt;stroke-linejoin:miter;marker:none;marker-start:none;marker-mid:none;marker-end:none;stroke-miterlimit:4;stroke-dasharray:none;stroke-dashoffset:0;stroke-opacity:1;visibility:visible;display:inline;overflow:visible" transform="scale(-1.000000,1.000000)" width="30" x="-39" y="22"/>
    <rect height="2" id="rect4254" style="opacity:1;color:#000000;fill:#5E79B0;fill-opacity:1;fill-rule:evenodd;stroke:none;stroke-width:1;stroke-linecap:butt;stroke-linejoin:miter;marker:none;marker-start:none;marker-mid:none;marker-end:none;stroke-miterlimit:4;stroke-dasharray:none;stroke-dashoffset:0;stroke-opacity:1;visibility:visible;display:inline;overflow:visible" transform="scale(-1.000000,1.000000)" width="30" x="-39" y="28"/>
    <rect height="2" id="rect4256" style="opacity:1;color:#000000;fill:#5E79B0;fill-opacity:1;fill-rule:evenodd;stroke:none;stroke-width:1;stroke-linecap:butt;stroke-linejoin:miter;marker:none;marker-start:none;marker-mid:none;marker-end:none;stroke-miterlimit:4;stroke-dasharray:none;stroke-dashoffset:0;stroke-opacity:1;visibility:visible;display:inline;overflow:visible" transform="scale(-1.000000,1.000000)" width="30" x="-39" y="34"/>
    <rect height="43.022316" id="rect2245" rx="0" ry="0" style="opacity:1;fill:none;fill-opacity:1;fill-rule:evenodd;stroke:#ffffff;stroke-width:0.99999982;stroke-linecap:butt;stroke-linejoin:miter;stroke-miterlimit:4;stroke-dasharray:none;stroke-dashoffset:0;stroke-opacity:1" width="37.025566" x="5.4997125" y="2.4997177"/>
  </g>
</svg>
