<?xml version="1.0" encoding="UTF-8" standalone="no"?>
<!-- Created with Inkscape (http://www.inkscape.org/) -->

<svg
   xmlns:dc="http://purl.org/dc/elements/1.1/"
   xmlns:cc="http://creativecommons.org/ns#"
   xmlns:rdf="http://www.w3.org/1999/02/22-rdf-syntax-ns#"
   xmlns:svg="http://www.w3.org/2000/svg"
   xmlns="http://www.w3.org/2000/svg"
   xmlns:xlink="http://www.w3.org/1999/xlink"
   xmlns:sodipodi="http://sodipodi.sourceforge.net/DTD/sodipodi-0.dtd"
   xmlns:inkscape="http://www.inkscape.org/namespaces/inkscape"
   width="126.40143"
   height="126.4"
   id="svg2"
   version="1.1"
   inkscape:version="0.48.4 r9939"
   sodipodi:docname="New document 1">
  <defs
     id="defs4">
    <filter
       inkscape:collect="always"
       id="filter3728"
       color-interpolation-filters="sRGB">
      <feGaussianBlur
         stdDeviation="0.20531539"
         inkscape:collect="always"
         id="feGaussianBlur3730" />
    </filter>
    <radialGradient
       xlink:href="#linearGradient5914"
       r="33.941124"
       inkscape:collect="always"
       id="radialGradient3678"
       gradientUnits="userSpaceOnUse"
       gradientTransform="matrix(1,0,0,0.333333,0,41.72841)"
       fy="78.751389"
       fx="53.426815"
       cy="62.592621"
       cx="67.175148" />
    <radialGradient
       xlink:href="#linearGradient5904"
       r="35.40966"
       inkscape:collect="always"
       id="radialGradient3676"
       gradientUnits="userSpaceOnUse"
       gradientTransform="matrix(-0.1166721,0.02738093,0.1258115,0.5360856,31.276382,-75.854424)"
       fy="51.843987"
       fx="10.492155"
       cy="54.472202"
       cx="26.689753" />
    <radialGradient
       xlink:href="#linearGradient3189"
       r="33.941124"
       inkscape:collect="always"
       id="radialGradient3674"
       gradientUnits="userSpaceOnUse"
       gradientTransform="matrix(1,0,0,0.333333,0,41.72841)"
       fy="62.592621"
       fx="67.175148"
       cy="62.592621"
       cx="67.175148" />
    <radialGradient
       xlink:href="#linearGradient4086"
       r="47.040867"
       inkscape:collect="always"
       id="radialGradient3672"
       gradientUnits="userSpaceOnUse"
       gradientTransform="matrix(-0.05831646,0.1203232,0.1779439,0.08424196,15.635918,-81.378967)"
       fy="85.312073"
       fx="27.016188"
       cy="105.95415"
       cx="33.647404" />
    <radialGradient
       xlink:href="#linearGradient4094"
       r="49.681286"
       inkscape:collect="always"
       id="radialGradient3670"
       gradientUnits="userSpaceOnUse"
       gradientTransform="matrix(-0.2057116,0.02496447,0.01323693,0.109073,39.58002,-80.37994)"
       fy="72.828125"
       fx="60.109371"
       cy="72.828125"
       cx="60.109371" />
    <linearGradient
       y2="22.740273"
       y1="-8.000001"
       xlink:href="#linearGradient4124"
       x2="52.763168"
       x1="61"
       inkscape:collect="always"
       id="linearGradient3668"
       gradientUnits="userSpaceOnUse"
       gradientTransform="matrix(-0.2617984,-0.1115619,-0.1115619,0.2617984,49.20725,-59.811324)" />
    <linearGradient
       y2="38.829636"
       y1="38.188641"
       xlink:href="#linearGradient3291"
       x2="59.352558"
       x1="79.515709"
       inkscape:collect="always"
       id="linearGradient3666"
       gradientUnits="userSpaceOnUse"
       gradientTransform="matrix(-0.427877,0.05678872,0.05678872,0.427877,51.83148,-79.133689)" />
    <linearGradient
       y2="37.34375"
       y1="32.59375"
       xlink:href="#linearGradient4094"
       x2="94.125"
       x1="49.324944"
       spreadMethod="reflect"
       inkscape:collect="always"
       id="linearGradient3664"
       gradientUnits="userSpaceOnUse"
       gradientTransform="matrix(-0.2825052,0.03428406,0.03428406,0.2825052,45.612899,-69.265056)" />
    <radialGradient
       xlink:href="#linearGradient3189"
       r="33.941124"
       inkscape:collect="always"
       id="radialGradient3662"
       gradientUnits="userSpaceOnUse"
       gradientTransform="matrix(1,0,0,0.333333,0,41.72841)"
       fy="62.592621"
       fx="67.175148"
       cy="62.592621"
       cx="67.175148" />
    <radialGradient
       xlink:href="#linearGradient4086"
       r="47.040867"
       inkscape:collect="always"
       id="radialGradient3660"
       gradientUnits="userSpaceOnUse"
       gradientTransform="matrix(-0.1783948,0.08350587,0.08440883,0.1803231,34.164873,-65.027613)"
       fy="91.120483"
       fx="20.890965"
       cy="97.558548"
       cx="46.320789" />
    <radialGradient
       xlink:href="#linearGradient4094"
       r="49.681286"
       inkscape:collect="always"
       id="radialGradient3658"
       gradientUnits="userSpaceOnUse"
       gradientTransform="matrix(-0.2825052,0.03428406,0.01836265,0.1513106,46.77243,-59.710362)"
       fy="72.828125"
       fx="60.109371"
       cy="72.828125"
       cx="60.109371" />
    <linearGradient
       y2="102.84682"
       y1="102.86192"
       xlink:href="#linearGradient2334"
       x2="-81.932449"
       x1="-48.32362"
       inkscape:collect="always"
       id="linearGradient3656"
       gradientUnits="userSpaceOnUse"
       gradientTransform="matrix(-0.1828673,0.02958248,0.02328389,0.1835217,18.438484,-50.14049)" />
    <filter
       inkscape:collect="always"
       id="filter3637"
       color-interpolation-filters="sRGB">
      <feGaussianBlur
         stdDeviation="0.26548265"
         inkscape:collect="always"
         id="feGaussianBlur3639" />
    </filter>
    <radialGradient
       xlink:href="#linearGradient3609"
       r="19.974998"
       inkscape:collect="always"
       id="radialGradient3615"
       gradientUnits="userSpaceOnUse"
       gradientTransform="matrix(0.8124666,-0.5830077,1.3642054,1.9011265,-66.61429,-4.5879731)"
       fy="51.090271"
       fx="106.32523"
       cy="61.783173"
       cx="105.60236" />
    <clipPath
       id="clipPath3603"
       clipPathUnits="userSpaceOnUse">
      <path
         style="fill:none;stroke:#000000;stroke-width:0.45699999;stroke-linecap:round;stroke-linejoin:round;stroke-miterlimit:4;stroke-opacity:1;stroke-dasharray:none;stroke-dashoffset:4;filter:url(#filter3597)"
         sodipodi:nodetypes="cccccc"
         id="path3605"
         d="m 59.441817,-44.032495 -4.845983,0.783936 2.177044,17.159278 c 0.08457,2.883699 1.978696,5.058741 3.412557,7.407705 0.989702,-3.223704 1.835521,-5.022366 1.421784,-8.283401 l -2.165402,-17.067518 z"
         inkscape:connector-curvature="0" />
    </clipPath>
    <filter
       y="-0.05014763"
       x="-0.15088631"
       width="1.3017726"
       inkscape:collect="always"
       id="filter3597"
       height="1.1002953"
       color-interpolation-filters="sRGB">
      <feGaussianBlur
         stdDeviation="0.57059479"
         inkscape:collect="always"
         id="feGaussianBlur3599" />
    </filter>
    <filter
       inkscape:collect="always"
       id="filter3540"
       color-interpolation-filters="sRGB">
      <feGaussianBlur
         stdDeviation="0.39412686"
         inkscape:collect="always"
         id="feGaussianBlur3542" />
    </filter>
    <filter
       inkscape:collect="always"
       id="filter3381"
       color-interpolation-filters="sRGB">
      <feGaussianBlur
         stdDeviation="0.94590449"
         inkscape:collect="always"
         id="feGaussianBlur3383" />
    </filter>
    <filter
       y="-0.11771369"
       x="-0.13064677"
       width="1.2612935"
       inkscape:collect="always"
       id="filter3357"
       height="1.2354274"
       color-interpolation-filters="sRGB">
      <feGaussianBlur
         stdDeviation="1.8058045"
         inkscape:collect="always"
         id="feGaussianBlur3359" />
    </filter>
    <filter
       inkscape:collect="always"
       id="filter3305"
       color-interpolation-filters="sRGB">
      <feGaussianBlur
         stdDeviation="1.0460516"
         inkscape:collect="always"
         id="feGaussianBlur3307" />
    </filter>
    <radialGradient
       xlink:href="#linearGradient4301"
       r="3.3587573"
       inkscape:collect="always"
       id="radialGradient2975"
       gradientUnits="userSpaceOnUse"
       gradientTransform="matrix(1,0,0,0.736842,0,19.35599)"
       fy="73.809258"
       fx="91.043648"
       cy="73.55278"
       cx="92.454208" />
    <linearGradient
       y2="27.459507"
       y1="100.2915"
       xlink:href="#linearGradient5904"
       x2="57.130394"
       x1="173.96887"
       inkscape:collect="always"
       id="linearGradient2973"
       gradientUnits="userSpaceOnUse"
       gradientTransform="matrix(1,0,0,1.004372,-52.50758,7.43503)" />
    <linearGradient
       y2="130.28703"
       y1="9.3526363"
       xlink:href="#linearGradient3058"
       x2="104.60481"
       x1="32.526917"
       inkscape:collect="always"
       id="linearGradient2960"
       gradientUnits="userSpaceOnUse"
       gradientTransform="matrix(-0.986412,0,0,0.928394,128.265,-6.125397)" />
    <radialGradient
       xlink:href="#linearGradient4309"
       r="64.071327"
       inkscape:collect="always"
       id="radialGradient2957"
       gradientUnits="userSpaceOnUse"
       gradientTransform="matrix(-2.5775266,-1.1711111,0.1996751,1.4444656,207.75095,0.589505)"
       fy="91.699684"
       fx="58.694687"
       cy="116.66548"
       cx="77.520203" />
    <radialGradient
       xlink:href="#linearGradient4318"
       r="47.781246"
       inkscape:collect="always"
       id="radialGradient2954"
       gradientUnits="userSpaceOnUse"
       gradientTransform="matrix(-1.301238,-0.09370473,-0.01427156,0.255192,151.3944,26.88342)"
       fy="74.718201"
       fx="68.972214"
       cy="74.718201"
       cx="68.972214" />
    <linearGradient
       y2="102.22624"
       y1="113.32587"
       xlink:href="#linearGradient2019"
       x2="89.072945"
       x1="98.177643"
       inkscape:collect="always"
       id="linearGradient2929"
       gradientUnits="userSpaceOnUse"
       gradientTransform="matrix(-1,0,0,1.004372,127.9173,-10.153148)" />
    <linearGradient
       y2="108.5625"
       y1="113.32587"
       xlink:href="#linearGradient2019"
       x2="94.729797"
       x1="98.177643"
       inkscape:collect="always"
       id="linearGradient2926"
       gradientUnits="userSpaceOnUse"
       gradientTransform="matrix(-1,0,0,1,180.42,-17.50089)" />
    <linearGradient
       y2="108.5625"
       y1="113.32587"
       xlink:href="#linearGradient2019"
       x2="94.729797"
       x1="98.177643"
       inkscape:collect="always"
       id="linearGradient2923"
       gradientUnits="userSpaceOnUse"
       gradientTransform="matrix(-1,0,0,1,180.22,-18.50089)" />
    <linearGradient
       y2="108.5625"
       y1="113.32587"
       xlink:href="#linearGradient2019"
       x2="94.729797"
       x1="98.177643"
       inkscape:collect="always"
       id="linearGradient2920"
       gradientUnits="userSpaceOnUse"
       gradientTransform="translate(-52.30268,-18.50089)" />
    <linearGradient
       y2="108.5625"
       y1="113.32587"
       xlink:href="#linearGradient2019"
       x2="94.729797"
       x1="98.177643"
       inkscape:collect="always"
       id="linearGradient2916"
       gradientUnits="userSpaceOnUse"
       gradientTransform="translate(-52.50268,-17.50089)" />
    <linearGradient
       y2="108.5625"
       y1="113.32587"
       xlink:href="#linearGradient2019"
       x2="94.729797"
       x1="98.177643"
       inkscape:collect="always"
       id="linearGradient2025"
       gradientUnits="userSpaceOnUse" />
    <radialGradient
       xlink:href="#linearGradient4301"
       r="3.3587573"
       inkscape:collect="always"
       id="radialGradient2944"
       gradientUnits="userSpaceOnUse"
       gradientTransform="matrix(1,0,0,0.736842,0,19.35599)"
       fy="73.809258"
       fx="91.043648"
       cy="73.55278"
       cx="92.454208" />
    <linearGradient
       y2="65.502769"
       y1="98.206459"
       xlink:href="#linearGradient4089"
       x2="114.61522"
       x1="79.825981"
       inkscape:collect="always"
       id="linearGradient2942"
       gradientUnits="userSpaceOnUse"
       gradientTransform="matrix(0.690325,0,0,0.779938,34.7461,-1.375054)" />
    <radialGradient
       xlink:href="#linearGradient4318"
       r="47.781246"
       inkscape:collect="always"
       id="radialGradient2938"
       gradientUnits="userSpaceOnUse"
       gradientTransform="matrix(1.301238,-0.09329686,0.01427156,0.254081,-23.47707,36.87536)"
       fy="74.718201"
       fx="68.972214"
       cy="74.718201"
       cx="68.972214" />
    <radialGradient
       xlink:href="#linearGradient4309"
       r="64.071327"
       inkscape:collect="always"
       id="radialGradient2936"
       gradientUnits="userSpaceOnUse"
       gradientTransform="matrix(1.782917,-0.935261,0.08371703,1.343107,-56.85403,5.481532)"
       fy="89.233253"
       fx="50.822227"
       cy="114.19905"
       cx="69.647743" />
    <linearGradient
       y2="130.28703"
       y1="9.3526363"
       xlink:href="#linearGradient3058"
       x2="104.60481"
       x1="32.526917"
       inkscape:collect="always"
       id="linearGradient2934"
       gradientUnits="userSpaceOnUse"
       gradientTransform="matrix(0.986412,0,0,0.924353,-0.347729,4.01022)" />
    <linearGradient
       y2="64"
       y1="140.25"
       xlink:href="#linearGradient2891"
       x2="65.43679"
       x1="113"
       inkscape:collect="always"
       id="linearGradient2932"
       gradientUnits="userSpaceOnUse" />
    <linearGradient
       y2="51.042213"
       y1="153.10228"
       xlink:href="#linearGradient4246"
       x2="40.305077"
       x1="124.45079"
       inkscape:collect="always"
       id="linearGradient2930"
       gradientUnits="userSpaceOnUse"
       gradientTransform="matrix(0.986412,0,0,1.114461,-0.696478,-26.31741)" />
    <linearGradient
       y2="64"
       y1="140.25"
       xlink:href="#linearGradient2891"
       x2="65.43679"
       x1="113"
       inkscape:collect="always"
       id="linearGradient2897"
       gradientUnits="userSpaceOnUse" />
    <radialGradient
       xlink:href="#linearGradient2881"
       r="63.022152"
       inkscape:collect="always"
       id="radialGradient2887"
       gradientUnits="userSpaceOnUse"
       gradientTransform="matrix(2.121997,-0.207569,0.05159571,0.527467,-110.2403,57.28961)"
       fy="132.51294"
       fx="92.159912"
       cy="132.51294"
       cx="92.159912" />
    <radialGradient
       xlink:href="#linearGradient4301"
       r="3.3587573"
       inkscape:collect="always"
       id="radialGradient4307"
       gradientUnits="userSpaceOnUse"
       gradientTransform="matrix(1,0,0,0.736842,0,19.35599)"
       fy="73.809258"
       fx="91.043648"
       cy="73.55278"
       cx="92.454208" />
    <linearGradient
       y2="65.502769"
       y1="98.206459"
       xlink:href="#linearGradient4089"
       x2="114.61522"
       x1="79.825981"
       inkscape:collect="always"
       id="linearGradient4297"
       gradientUnits="userSpaceOnUse"
       gradientTransform="matrix(0.690325,0,0,0.779938,34.7461,-1.375054)" />
    <linearGradient
       y2="65.502769"
       y1="98.206459"
       xlink:href="#linearGradient4089"
       x2="114.61522"
       x1="79.825981"
       inkscape:collect="always"
       id="linearGradient4295"
       gradientUnits="userSpaceOnUse"
       gradientTransform="matrix(0.690325,0,0,0.779938,34.7461,-1.375054)" />
    <radialGradient
       xlink:href="#linearGradient4318"
       r="47.781246"
       inkscape:collect="always"
       id="radialGradient4283"
       gradientUnits="userSpaceOnUse"
       gradientTransform="matrix(1.301238,-0.09329686,0.01427156,0.254081,-23.47707,36.87536)"
       fy="74.718201"
       fx="68.972214"
       cy="74.718201"
       cx="68.972214" />
    <radialGradient
       xlink:href="#linearGradient4309"
       r="64.071327"
       inkscape:collect="always"
       id="radialGradient4258"
       gradientUnits="userSpaceOnUse"
       gradientTransform="matrix(1.782917,-0.935261,0.08371703,1.343107,-56.85403,5.481532)"
       fy="89.233253"
       fx="50.822227"
       cy="114.19905"
       cx="69.647743" />
    <linearGradient
       y2="51.042213"
       y1="153.10228"
       xlink:href="#linearGradient4246"
       x2="40.305077"
       x1="124.45079"
       inkscape:collect="always"
       id="linearGradient4252"
       gradientUnits="userSpaceOnUse"
       gradientTransform="matrix(0.986412,0,0,1.114461,-0.696478,-26.31741)" />
    <linearGradient
       id="linearGradient3058">
      <stop
         style="stop-color:#9a7600;stop-opacity:1;"
         offset="0"
         id="stop3060" />
      <stop
         style="stop-color:#e3ad00;stop-opacity:1;"
         offset="0.09292036"
         id="stop3066" />
      <stop
         style="stop-color:#ffcd2c;stop-opacity:1;"
         offset="0.5043171"
         id="stop3070" />
      <stop
         style="stop-color:#e3ad00;stop-opacity:1;"
         offset="0.91571385"
         id="stop3068" />
      <stop
         style="stop-color:#b98d00;stop-opacity:1;"
         offset="1"
         id="stop3062" />
    </linearGradient>
    <linearGradient
       y2="130.28703"
       y1="9.3526363"
       xlink:href="#linearGradient3058"
       x2="104.60481"
       x1="32.526917"
       inkscape:collect="always"
       id="linearGradient4082"
       gradientUnits="userSpaceOnUse"
       gradientTransform="matrix(0.986412,0,0,0.924353,-0.347729,4.01022)" />
    <radialGradient
       xlink:href="#linearGradient5904"
       r="35.40966"
       inkscape:collect="always"
       id="radialGradient3187"
       gradientUnits="userSpaceOnUse"
       gradientTransform="matrix(0.277621,0.0040358,-0.01584782,1.089994,42.19747,11.66854)"
       fy="51.843987"
       fx="10.492155"
       cy="54.472202"
       cx="26.689753" />
    <linearGradient
       y2="38.829636"
       y1="38.188641"
       xlink:href="#linearGradient3291"
       x2="59.352558"
       x1="79.515709"
       inkscape:collect="always"
       id="linearGradient3185"
       gradientUnits="userSpaceOnUse" />
    <radialGradient
       xlink:href="#linearGradient5914"
       r="33.941124"
       inkscape:collect="always"
       id="radialGradient3177"
       gradientUnits="userSpaceOnUse"
       gradientTransform="matrix(1,0,0,0.333333,0,41.72841)"
       fy="78.751389"
       fx="53.426815"
       cy="62.592621"
       cx="67.175148" />
    <radialGradient
       xlink:href="#linearGradient3189"
       r="33.941124"
       inkscape:collect="always"
       id="radialGradient3173"
       gradientUnits="userSpaceOnUse"
       gradientTransform="matrix(1,0,0,0.333333,0,41.72841)"
       fy="62.592621"
       fx="67.175148"
       cy="62.592621"
       cx="67.175148" />
    <radialGradient
       xlink:href="#linearGradient4086"
       r="47.040867"
       inkscape:collect="always"
       id="radialGradient3171"
       gradientUnits="userSpaceOnUse"
       gradientTransform="matrix(0.17061,0.258566,-0.382999,0.247716,82.44465,-16.18971)"
       fy="85.312073"
       fx="27.016188"
       cy="105.95415"
       cx="33.647404" />
    <radialGradient
       xlink:href="#linearGradient4094"
       r="49.681286"
       inkscape:collect="always"
       id="radialGradient3169"
       gradientUnits="userSpaceOnUse"
       gradientTransform="matrix(0.48006,-0.00536958,0.00284664,0.254539,27.75761,-6.596686)"
       fy="72.828125"
       fx="60.109371"
       cy="72.828125"
       cx="60.109371" />
    <linearGradient
       y2="22.740273"
       y1="-8.000001"
       xlink:href="#linearGradient4124"
       x2="52.763168"
       x1="61"
       inkscape:collect="always"
       id="linearGradient3167"
       gradientUnits="userSpaceOnUse"
       gradientTransform="matrix(0.567257,-0.336021,0.336021,0.567257,11.91678,43.57707)" />
    <linearGradient
       y2="37.34375"
       y1="32.59375"
       xlink:href="#linearGradient4094"
       x2="94.125"
       x1="49.324944"
       spreadMethod="reflect"
       inkscape:collect="always"
       id="linearGradient3165"
       gradientUnits="userSpaceOnUse"
       gradientTransform="matrix(0.65927,-0.00737371,0.00737371,0.65927,17.29013,20.7694)" />
    <radialGradient
       xlink:href="#linearGradient3189"
       r="33.941124"
       inkscape:collect="always"
       id="radialGradient3163"
       gradientUnits="userSpaceOnUse"
       gradientTransform="matrix(1,0,0,0.333333,0,41.72841)"
       fy="62.592621"
       fx="67.175148"
       cy="62.592621"
       cx="67.175148" />
    <radialGradient
       xlink:href="#linearGradient4086"
       r="47.040867"
       inkscape:collect="always"
       id="radialGradient3161"
       gradientUnits="userSpaceOnUse"
       gradientTransform="matrix(0.435167,0.137407,-0.138893,0.439871,44.87405,27.01182)"
       fy="91.120483"
       fx="20.890965"
       cy="97.558548"
       cx="46.320789" />
    <radialGradient
       xlink:href="#linearGradient4094"
       r="49.681286"
       inkscape:collect="always"
       id="radialGradient3159"
       gradientUnits="userSpaceOnUse"
       gradientTransform="matrix(0.65927,-0.00737371,0.00394936,0.353107,17.53952,43.06677)"
       fy="72.828125"
       fx="60.109371"
       cy="72.828125"
       cx="60.109371" />
    <linearGradient
       y2="162.15964"
       y1="162.73038"
       xlink:href="#linearGradient6250"
       x2="-69.858452"
       x1="-63.233101"
       inkscape:collect="always"
       id="linearGradient3157"
       gradientUnits="userSpaceOnUse" />
    <linearGradient
       y2="161.16936"
       y1="163.06093"
       xlink:href="#linearGradient6250"
       x2="-63.657074"
       x1="-59.123386"
       inkscape:collect="always"
       id="linearGradient3155"
       gradientUnits="userSpaceOnUse" />
    <linearGradient
       y2="157.58188"
       y1="159.10574"
       xlink:href="#linearGradient6250"
       x2="-72.261574"
       x1="-77.956337"
       inkscape:collect="always"
       id="linearGradient3153"
       gradientUnits="userSpaceOnUse" />
    <linearGradient
       y2="131.117"
       y1="22.222563"
       xlink:href="#linearGradient6250"
       x2="-62.398071"
       x1="-77.403809"
       inkscape:collect="always"
       id="linearGradient3151"
       gradientUnits="userSpaceOnUse" />
    <linearGradient
       y2="104.95406"
       y1="104.95406"
       xlink:href="#linearGradient2334"
       x2="-82"
       x1="-55.327003"
       inkscape:collect="always"
       id="linearGradient3149"
       gradientUnits="userSpaceOnUse"
       gradientTransform="translate(0,-0.707107)" />
    <linearGradient
       inkscape:collect="always"
       id="linearGradient3291">
      <stop
         style="stop-color:#000000;stop-opacity:1;"
         offset="0"
         id="stop3293" />
      <stop
         style="stop-color:#000000;stop-opacity:0;"
         offset="1"
         id="stop3295" />
    </linearGradient>
    <linearGradient
       id="linearGradient2334">
      <stop
         style="stop-color:#a5a5a5;stop-opacity:1;"
         offset="0"
         id="stop6098" />
      <stop
         style="stop-color:#dfe1e1;stop-opacity:1;"
         offset="0.07692308"
         id="stop2346" />
      <stop
         style="stop-color:#e2dcdc;stop-opacity:1;"
         offset="0.5"
         id="stop2342" />
      <stop
         style="stop-color:#ffffff;stop-opacity:1;"
         offset="0.78201604"
         id="stop2348" />
      <stop
         style="stop-color:#dfd9df;stop-opacity:1;"
         offset="0.9005897"
         id="stop2344" />
      <stop
         style="stop-color:#d5d5d5;stop-opacity:1;"
         offset="1"
         id="stop6104" />
    </linearGradient>
    <linearGradient
       id="linearGradient3189">
      <stop
         style="stop-color:#003d7f;stop-opacity:1;"
         offset="0"
         id="stop3191" />
      <stop
         style="stop-color:#004da0;stop-opacity:1;"
         offset="0.81415927"
         id="stop3197" />
      <stop
         style="stop-color:#00438a;stop-opacity:0;"
         offset="1"
         id="stop3193" />
    </linearGradient>
    <linearGradient
       id="linearGradient4086">
      <stop
         style="stop-color:#d7ebff;stop-opacity:1;"
         offset="0"
         id="stop4088" />
      <stop
         style="stop-color:#b9dbff;stop-opacity:0;"
         offset="1"
         id="stop4090" />
    </linearGradient>
    <linearGradient
       id="linearGradient4094">
      <stop
         style="stop-color:#4da3ff;stop-opacity:1;"
         offset="0"
         id="stop4096" />
      <stop
         style="stop-color:#004895;stop-opacity:1;"
         offset="1"
         id="stop4098" />
    </linearGradient>
    <linearGradient
       id="linearGradient4124">
      <stop
         style="stop-color:#002145;stop-opacity:1;"
         offset="0"
         id="stop4126" />
      <stop
         style="stop-color:#001d3d;stop-opacity:0"
         offset="1"
         id="stop4128" />
    </linearGradient>
    <linearGradient
       inkscape:collect="always"
       id="linearGradient5904">
      <stop
         style="stop-color:white;stop-opacity:1;"
         offset="0"
         id="stop5906" />
      <stop
         style="stop-color:white;stop-opacity:0;"
         offset="1"
         id="stop5908" />
    </linearGradient>
    <linearGradient
       inkscape:collect="always"
       id="linearGradient5914">
      <stop
         style="stop-color:#0060c8;stop-opacity:1"
         offset="0"
         id="stop5916" />
      <stop
         style="stop-color:#003772;stop-opacity:0;"
         offset="1"
         id="stop5918" />
    </linearGradient>
    <linearGradient
       inkscape:collect="always"
       id="linearGradient6250">
      <stop
         style="stop-color:black;stop-opacity:1;"
         offset="0"
         id="stop6252" />
      <stop
         style="stop-color:black;stop-opacity:0;"
         offset="1"
         id="stop6254" />
    </linearGradient>
    <linearGradient
       inkscape:collect="always"
       id="linearGradient4089">
      <stop
         style="stop-color:#3a3a3a;stop-opacity:1;"
         offset="0"
         id="stop4091" />
      <stop
         style="stop-color:#3a3a3a;stop-opacity:0;"
         offset="1"
         id="stop4093" />
    </linearGradient>
    <linearGradient
       id="linearGradient4246">
      <stop
         style="stop-color:#3a3a3a;stop-opacity:0.46975088;"
         offset="0"
         id="stop4248" />
      <stop
         style="stop-color:#3a3a3a;stop-opacity:0;"
         offset="1"
         id="stop4250" />
    </linearGradient>
    <linearGradient
       inkscape:collect="always"
       id="linearGradient4301">
      <stop
         style="stop-color:black;stop-opacity:1;"
         offset="0"
         id="stop4303" />
      <stop
         style="stop-color:black;stop-opacity:0;"
         offset="1"
         id="stop4305" />
    </linearGradient>
    <linearGradient
       id="linearGradient4309">
      <stop
         style="stop-color:#fff727;stop-opacity:0.73333335;"
         offset="0"
         id="stop4311" />
      <stop
         style="stop-color:#ffb266;stop-opacity:0;"
         offset="1"
         id="stop4313" />
    </linearGradient>
    <linearGradient
       id="linearGradient4318">
      <stop
         style="stop-color:#fffaa8;stop-opacity:1;"
         offset="0"
         id="stop4320" />
      <stop
         style="stop-color:white;stop-opacity:0;"
         offset="1"
         id="stop4322" />
    </linearGradient>
    <linearGradient
       inkscape:collect="always"
       id="linearGradient2881">
      <stop
         style="stop-color:white;stop-opacity:1;"
         offset="0"
         id="stop2883" />
      <stop
         style="stop-color:white;stop-opacity:0;"
         offset="1"
         id="stop2885" />
    </linearGradient>
    <linearGradient
       inkscape:collect="always"
       id="linearGradient2891">
      <stop
         style="stop-color:#3a3a3a;stop-opacity:1;"
         offset="0"
         id="stop2893" />
      <stop
         style="stop-color:#3a3a3a;stop-opacity:0;"
         offset="1"
         id="stop2895" />
    </linearGradient>
    <linearGradient
       id="linearGradient2019">
      <stop
         style="stop-color:#fff823;stop-opacity:0.84313726;"
         offset="0"
         id="stop2912" />
      <stop
         style="stop-color:#ffff02;stop-opacity:0;"
         offset="1"
         id="stop2023" />
    </linearGradient>
    <linearGradient
       inkscape:collect="always"
       id="linearGradient3609">
      <stop
         style="stop-color:#ffffff;stop-opacity:1;"
         offset="0"
         id="stop3611" />
      <stop
         style="stop-color:#ffffff;stop-opacity:0;"
         offset="1"
         id="stop3613" />
    </linearGradient>
  </defs>
  <sodipodi:namedview
     id="base"
     pagecolor="#ffffff"
     bordercolor="#666666"
     borderopacity="1.0"
     inkscape:pageopacity="0.0"
     inkscape:pageshadow="2"
     inkscape:zoom="1.4"
     inkscape:cx="248.03769"
     inkscape:cy="-30.405215"
     inkscape:document-units="px"
     inkscape:current-layer="layer1-9"
     showgrid="false"
     fit-margin-top="0"
     fit-margin-left="0"
     fit-margin-right="0"
     fit-margin-bottom="0"
     inkscape:window-width="1680"
     inkscape:window-height="1003"
     inkscape:window-x="1020"
     inkscape:window-y="-4"
     inkscape:window-maximized="1" />
  <metadata
     id="metadata7">
    <rdf:RDF>
      <cc:Work
         rdf:about="">
        <dc:format>image/svg+xml</dc:format>
        <dc:type
           rdf:resource="http://purl.org/dc/dcmitype/StillImage" />
        <dc:title></dc:title>
      </cc:Work>
    </rdf:RDF>
  </metadata>
  <g
     inkscape:label="Layer 1"
     inkscape:groupmode="layer"
     id="layer1"
     transform="translate(-343.14796,-433.49686)">
    <g
       inkscape:label="Layer 1"
       id="layer1-9"
       transform="translate(341.70721,445.98414)">
      <path
         style="fill:#ffffff;fill-opacity:0.75688076;fill-rule:nonzero;stroke:none"
         sodipodi:nodetypes="ccc"
         id="path2276"
         d="m 50.892799,-6.7187041 0,-2.7947084 0,2.7947084 z"
         inkscape:connector-curvature="0" />
      <path
         style="fill:#ffffff;fill-opacity:0.75688076;fill-rule:nonzero;stroke:none"
         sodipodi:nodetypes="ccc"
         id="path3206"
         d="m -68.609401,-93.348954 0,-2.794709 0,2.794709 z"
         inkscape:connector-curvature="0" />
      <g
         transform="translate(114.3422,51.23268)"
         style="display:inline"
         inkscape:label="box"
         id="layer4" />
      <g
         transform="translate(114.3422,51.23268)"
         style="display:inline"
         inkscape:label="zip_app"
         id="layer5" />
      <path
         style="fill:#ffffff;fill-opacity:0.75688076;fill-rule:nonzero;stroke:none"
         sodipodi:nodetypes="ccc"
         id="path6137"
         d="m 175.4806,-122.1373 0,-2.79471 0,2.79471 z"
         inkscape:connector-curvature="0" />
      <path
         style="fill:#ffffff;fill-opacity:0.75688076;fill-rule:nonzero;stroke:none"
         sodipodi:nodetypes="ccc"
         id="path1987"
         d="m 102.99606,-346.0425 0,-2.79471 0,2.79471 z"
         inkscape:connector-curvature="0" />
      <path
         style="fill:#ffffff;fill-opacity:0.75688076;fill-rule:nonzero;stroke:none"
         sodipodi:nodetypes="ccc"
         id="path1747"
         d="m 150.79236,-461.3665 0,-2.79471 0,2.79471 z"
         inkscape:connector-curvature="0" />
      <rect
         y="-433.62347"
         x="139.64522"
         width="1"
         style="opacity:0.57786889;fill:#ffffff;fill-opacity:1;fill-rule:nonzero;stroke:none"
         id="rect1327"
         height="0" />
      <path
         style="fill:#222222;fill-opacity:0.31048387;fill-rule:evenodd;stroke:none;filter:url(#filter3305)"
         sodipodi:nodetypes="ccccc"
         id="path4289"
         d="m 2.13824,40.692777 20.86712,53.543703 5.37869,12.02059 C 59.752202,103.57481 92.695783,101.46584 124.16639,93.89389 91.044481,20.329379 69.754685,43.384463 2.13824,40.692777 z"
         inkscape:connector-curvature="0" />
      <path
         style="fill:url(#linearGradient2960);fill-opacity:1;fill-rule:evenodd;stroke:none"
         sodipodi:nodetypes="ccccscc"
         id="path3189"
         d="M 87.785389,25.626954 C 67.269851,40.914706 28.889195,37.616741 1.44075,37.131083 l 22.53785,55.961037 5.674251,10.50929 c 3.380861,0.34367 6.046423,0.40032 9.715735,0.14481 C 70.346121,101.58921 106.04542,99.5548 127.84218,82.523618 112.22546,64.253097 99.909037,44.969607 87.785389,25.626954 z"
         inkscape:connector-curvature="0" />
      <path
         style="opacity:0.61904764;fill:url(#radialGradient2957);fill-opacity:1;fill-rule:evenodd;stroke:none"
         sodipodi:nodetypes="ccccscc"
         id="path4254"
         d="M 87.489485,27.139341 C 66.973947,42.427093 28.889195,37.616741 1.44075,37.131083 l 22.73803,56.458077 5.459556,9.97168 c 3.875173,0.54964 7.207889,0.35985 11.483453,0.0637 C 71.684402,101.50735 106.45548,99.2344 127.84218,82.523618 112.22546,64.253097 99.613132,46.481996 87.489485,27.139341 z"
         inkscape:connector-curvature="0" />
      <path
         style="opacity:0.57875462;fill:url(#radialGradient2954);fill-opacity:1;fill-rule:evenodd;stroke:none"
         id="path4270"
         d="m 87.951697,25.031321 c 2.619476,4.179229 5.253305,8.358446 7.922121,12.522529 C 73.774067,52.10668 35.528761,49.5391 6.57272,48.852109 L 1.60983,36.539455 c 27.448455,0.485657 65.826331,3.779616 86.341867,-11.508134 z"
         inkscape:connector-curvature="0" />
      <g
         transform="matrix(-1.07461,-0.137266,-0.09297571,0.918695,140.7351,-1.50922)"
         id="g4291">
        <path
           style="opacity:0.53505536;fill:url(#linearGradient2942);fill-opacity:1;fill-rule:evenodd;stroke:none;filter:url(#filter3357)"
           sodipodi:nodetypes="cccccccccccccccccccc"
           id="path4285"
           d="m 120.84253,41.692103 -10.61374,4.045924 -4.01251,0.414343 -2.20041,1.754859 2.17629,8.160661 -10.195817,8.59126 -4.924062,9.20536 0.280444,0.41434 7.753893,-2.938618 11.491452,-7.799371 6.29667,4.498495 2.07097,-3.119749 1.38066,-4.289655 6.21292,-10.52915 -1.1865,-2.681035 0.66875,-0.511835 -1.61795,-1.608618 -0.97076,-2.217948 -0.62561,0.609326 -1.98469,-1.998589 z"
           inkscape:connector-curvature="0" />
      </g>
      <path
         transform="matrix(-0.950307,-0.312676,-0.311315,0.954462,145.5581,12.04384)"
         style="opacity:0.39194138;fill:url(#radialGradient2975);fill-opacity:1;stroke:none;filter:url(#filter3728)"
         sodipodi:type="arc"
         sodipodi:ry="2.4748738"
         sodipodi:rx="3.3587573"
         sodipodi:cy="73.55278"
         sodipodi:cx="92.454208"
         id="path4299"
         d="m 95.812966,73.55278 a 3.3587573,2.4748738 0 1 1 -6.717515,0 3.3587573,2.4748738 0 1 1 6.717515,0 z" />
      <g
         transform="translate(0,73.438601)"
         id="g3641">
        <path
           style="fill:url(#linearGradient3656);fill-opacity:1;stroke:none"
           sodipodi:nodetypes="cccccc"
           id="rect5922"
           d="m 34.516303,-44.032495 -4.845983,0.783936 2.177044,17.159278 c 0.08457,2.883699 1.978696,5.058741 3.412557,7.407705 0.989702,-3.223704 1.835521,-5.022366 1.421784,-8.283401 l -2.165402,-17.067518 z"
           inkscape:connector-curvature="0" />
        <path
           transform="translate(-24.930416,-0.03125)"
           style="fill:none;stroke:#000000;stroke-width:0.45699999;stroke-linecap:round;stroke-linejoin:round;stroke-miterlimit:4;stroke-opacity:1;stroke-dasharray:none;stroke-dashoffset:4;filter:url(#filter3597)"
           sodipodi:nodetypes="cccccc"
           id="path3601"
           d="m 59.441817,-44.032495 -4.845983,0.783936 2.177044,17.159278 c 0.08457,2.883699 1.978696,5.058741 3.412557,7.407705 0.989702,-3.223704 1.835521,-5.022366 1.421784,-8.283401 l -2.165402,-17.067518 z"
           clip-path="url(#clipPath3603)"
           inkscape:connector-curvature="0" />
        <path
           style="fill:url(#radialGradient3658);fill-opacity:1;stroke:none"
           id="path2261"
           d="m 30.221155,-54.147818 c 7.53692,-0.914655 14.105259,1.841632 14.928318,6.191012 0.05807,0.185125 0.104879,0.370267 0.128376,0.563889 0.440263,3.627843 -5.48455,7.339465 -13.232149,8.279687 -7.747598,0.94022 -14.398059,-1.245308 -14.838321,-4.873152 -0.02431,-0.2003 -0.01654,-0.398808 -0.0028,-0.599115 -0.223102,-4.412913 5.490828,-8.649026 13.016548,-9.562321 z"
           inkscape:connector-curvature="0" />
        <path
           style="opacity:0.79120878;fill:url(#radialGradient3660);fill-opacity:1;stroke:none"
           id="path3199"
           d="m 30.257257,-53.848144 c 7.136354,-0.866043 13.355604,1.743754 14.13492,5.861977 0.05498,0.175288 0.09931,0.350588 0.121553,0.53392 0.416864,3.435034 -5.193061,6.949393 -12.528897,7.839645 -7.335837,0.890254 -13.632843,-1.179124 -14.049707,-4.614158 -0.02302,-0.189654 -0.01566,-0.377612 -0.0026,-0.567272 -0.211247,-4.178381 5.199004,-8.189356 12.324754,-9.054112 z"
           inkscape:connector-curvature="0" />
        <path
           transform="matrix(-0.2825052,0.03428406,0.03749841,0.3089907,47.630429,-70.17855)"
           style="fill:url(#radialGradient3662);fill-opacity:1;stroke:none"
           sodipodi:type="arc"
           sodipodi:ry="11.313708"
           sodipodi:rx="33.941124"
           sodipodi:cy="62.592621"
           sodipodi:cx="67.175148"
           id="path2283"
           d="m 101.11627,62.592621 c 0,6.248388 -15.195957,11.313708 -33.941122,11.313708 -18.745165,0 -33.941124,-5.06532 -33.941124,-11.313708 0,-6.248389 15.195959,-11.313708 33.941124,-11.313708 18.745165,0 33.941122,5.065319 33.941122,11.313708 z" />
        <path
           style="fill:url(#linearGradient3664);fill-opacity:1;stroke:none"
           id="rect2263"
           d="m 21.550572,-69.193677 c 1.34896,1.031016 4.014582,1.537384 6.98695,1.176668 2.96864,-0.360265 5.429863,-1.482676 6.494931,-2.803823 l 4.519945,21.005178 c -0.0014,0.0016 0.0022,0.0071 0.0011,0.0088 l 0.0174,0.06956 -0.07063,0.0086 c -1.206409,1.754236 -4.401384,3.275381 -8.288578,3.747117 -3.882272,0.471139 -7.350537,-0.244619 -8.944256,-1.6558 l -0.07945,0.0096 -0.637382,-21.565936 z"
           inkscape:connector-curvature="0" />
        <path
           style="opacity:0.49450552;fill:url(#linearGradient3666);fill-opacity:1;stroke:none"
           id="path3181"
           d="m 21.550572,-69.193677 c 1.34896,1.031016 4.014582,1.537384 6.98695,1.176668 2.96864,-0.360265 5.429863,-1.482676 6.494931,-2.803823 l 4.519945,21.005178 c -0.0014,0.0016 0.0022,0.0071 0.0011,0.0088 l 0.0174,0.06956 -0.07063,0.0086 c -1.206409,1.754236 -4.401384,3.275381 -8.288578,3.747117 -3.882272,0.471139 -7.350537,-0.244619 -8.944256,-1.6558 l -0.07945,0.0096 -0.637382,-21.565936 z"
           inkscape:connector-curvature="0" />
        <path
           style="fill:url(#linearGradient3668);fill-opacity:1;stroke:none"
           id="path4122"
           d="m 21.550572,-69.193677 c 1.34896,1.031016 4.014582,1.537384 6.98695,1.176668 2.96864,-0.360265 5.429863,-1.482676 6.494931,-2.803823 l 4.519945,21.005178 c -0.0014,0.0016 0.0022,0.0071 0.0011,0.0088 l 0.0174,0.06956 -0.07063,0.0086 c -1.206409,1.754236 -4.401384,3.275381 -8.288578,3.747117 -3.882272,0.471139 -7.350537,-0.244619 -8.944256,-1.6558 l -0.07945,0.0096 -0.637382,-21.565936 z"
           inkscape:connector-curvature="0" />
        <path
           style="fill:url(#radialGradient3670);fill-opacity:1;stroke:none"
           id="path4110"
           d="m 27.524802,-76.35508 c 5.488146,-0.666023 10.267896,1.315414 10.863331,4.450438 0.04212,0.133418 0.07603,0.266857 0.09297,0.406431 0.317367,2.615157 -3.999512,5.29628 -9.641069,5.98092 -5.641556,0.684639 -10.481595,-0.885232 -10.798963,-3.50039 -0.01752,-0.144386 -0.01169,-0.287511 -0.0015,-0.431936 -0.158573,-3.181353 4.005231,-6.24043 9.485223,-6.905463 z"
           inkscape:connector-curvature="0" />
        <path
           style="opacity:0.79120878;fill:url(#radialGradient3672);fill-opacity:1;stroke:none"
           id="path4112"
           d="m 27.550823,-76.139058 c 5.196468,-0.630626 9.722188,1.245505 10.285977,4.21391 0.03988,0.126328 0.07199,0.252675 0.08803,0.38483 0.300499,2.476169 -3.78695,5.014798 -9.128674,5.663051 -5.341725,0.648252 -9.924527,-0.838184 -10.225027,-3.314353 -0.01659,-0.136713 -0.01107,-0.27223 -0.0014,-0.408983 -0.150141,-3.01227 3.792365,-5.908766 8.98111,-6.538455 z"
           inkscape:connector-curvature="0" />
        <path
           transform="matrix(-0.2596857,0.03151437,0.04176128,0.344118,42.874403,-96.321379)"
           style="opacity:0.68634691;fill:url(#radialGradient3674);fill-opacity:1;stroke:none;filter:url(#filter3540)"
           sodipodi:type="arc"
           sodipodi:ry="11.313708"
           sodipodi:rx="33.941124"
           sodipodi:cy="62.592621"
           sodipodi:cx="67.175148"
           id="path4114"
           d="m 101.11627,62.592621 c 0,6.248388 -15.195957,11.313708 -33.941122,11.313708 -18.745165,0 -33.941124,-5.06532 -33.941124,-11.313708 0,-6.248389 15.195959,-11.313708 33.941124,-11.313708 18.745165,0 33.941122,5.065319 33.941122,11.313708 z" />
        <path
           style="opacity:0.73800737;fill:url(#radialGradient3676);fill-opacity:1;stroke:none"
           id="path5017"
           d="m 21.550572,-69.193677 c 1.34896,1.031016 4.014582,1.537384 6.98695,1.176668 2.96864,-0.360265 5.429863,-1.482676 6.494931,-2.803823 l 4.519945,21.005178 c -0.0014,0.0016 0.0022,0.0071 0.0011,0.0088 l 0.0174,0.06956 -0.07063,0.0086 c -1.206409,1.754236 -4.401384,3.275381 -8.288578,3.747117 -3.882272,0.471139 -7.350537,-0.244619 -8.944256,-1.6558 l -0.07945,0.0096 -0.637382,-21.565936 z"
           inkscape:connector-curvature="0" />
        <path
           transform="matrix(-0.2596857,0.03151437,0.04176128,0.344118,41.624403,-96.321379)"
           style="fill:url(#radialGradient3678);fill-opacity:1;stroke:none;filter:url(#filter3381)"
           sodipodi:type="arc"
           sodipodi:ry="11.313708"
           sodipodi:rx="33.941124"
           sodipodi:cy="62.592621"
           sodipodi:cx="67.175148"
           id="path5912"
           d="m 101.11627,62.592621 c 0,6.248388 -15.195957,11.313708 -33.941122,11.313708 -18.745165,0 -33.941124,-5.06532 -33.941124,-11.313708 0,-6.248389 15.195959,-11.313708 33.941124,-11.313708 18.745165,0 33.941122,5.065319 33.941122,11.313708 z" />
      </g>
      <path
         style="opacity:0.61904764;fill:url(#linearGradient2929);fill-opacity:1;fill-rule:evenodd;stroke:none"
         id="path2017"
         d="m 12.9375,65.6875 11.25,27.90625 5.4375,9.96875 c 3.875173,0.54964 7.224436,0.35868 11.5,0.0625 8.25668,-0.57196 16.819647,-1.15494 25.34375,-2.03125 l 0,-32.4375 c 0,-1.925375 -0.672078,-3.46875 -1.5,-3.46875 l -52.03125,0 z"
         inkscape:connector-curvature="0" />
      <path
         style="opacity:0.41904764;fill:url(#linearGradient2973);fill-opacity:1;fill-rule:evenodd;stroke:none"
         sodipodi:nodetypes="cccsccscccc"
         id="path2914"
         d="M 1.4299198,37.126764 24.17992,93.59129 l 5.46875,9.98095 c 3.875174,0.54964 7.193186,0.35895 11.46875,0.0628 30.56261,-2.11717 65.33205,-4.38103 86.71875,-21.091811 -0.2046,-0.239367 -0.39018,-0.482692 -0.59375,-0.721892 -21.41766,16.436423 -55.669255,19.269943 -86.046875,21.374293 -4.275564,0.29618 -7.624829,0.48687 -11.5,-0.0628 L 23.96117,92.58692 1.6486698,37.126764 c -0.071137,-0.0013 -0.147755,0.0013 -0.21875,0 z"
         inkscape:connector-curvature="0" />
      <path
         style="opacity:0.6457565;fill:none;stroke:url(#radialGradient3615);stroke-width:1;stroke-linecap:round;stroke-linejoin:round;stroke-miterlimit:4;stroke-opacity:1;stroke-dasharray:none;filter:url(#filter3637)"
         sodipodi:nodetypes="cc"
         id="path3607"
         d="M 87.469671,26.383882 C 99.053586,45.639598 111.98213,64.195208 126.80806,82.28033"
         inkscape:connector-curvature="0" />
    </g>
  </g>
</svg>
