<?xml version="1.0" encoding="utf-8"?>
<!-- Generator: Adobe Illustrator 15.1.0, SVG Export Plug-In . SVG Version: 6.00 Build 0)  -->
<!DOCTYPE svg PUBLIC "-//W3C//DTD SVG 1.1//EN" "http://www.w3.org/Graphics/SVG/1.1/DTD/svg11.dtd">
<svg version="1.1"
	 id="svg2" xmlns:svg="http://www.w3.org/2000/svg" inkscape:export-filename="/home/david/Desktop/1day.png" inkscape:output_extension="org.inkscape.output.svg.inkscape" inkscape:export-xdpi="22.5" inkscape:export-ydpi="22.5" sodipodi:docbase="/home/david/Desktop" inkscape:version="0.45.1" sodipodi:version="0.32" sodipodi:docname="1day.svg" xmlns:sodipodi="http://sodipodi.sourceforge.net/DTD/sodipodi-0.dtd" xmlns:cc="http://web.resource.org/cc/" xmlns:dc="http://purl.org/dc/elements/1.1/" xmlns:inkscape="http://www.inkscape.org/namespaces/inkscape" xmlns:rdf="http://www.w3.org/1999/02/22-rdf-syntax-ns#"
	 xmlns="http://www.w3.org/2000/svg" xmlns:xlink="http://www.w3.org/1999/xlink" x="0px" y="0px" width="128px" height="128px"
	 viewBox="0 0 128 128" enable-background="new 0 0 128 128" xml:space="preserve">
<filter  id="filter9643" inkscape:collect="always">
	<feGaussianBlur  id="feGaussianBlur9645" inkscape:collect="always" stdDeviation="1.18"></feGaussianBlur>
</filter>
<filter  x="-0.1288135" y="-0.12881362" width="1.257627" height="1.2576272" id="filter11438" inkscape:collect="always">
	<feGaussianBlur  id="feGaussianBlur11440" inkscape:collect="always" stdDeviation="1.1413633"></feGaussianBlur>
</filter>
<sodipodi:namedview  width="128px" height="128px" id="base" gridtolerance="50" inkscape:zoom="4.9296875" guidetolerance="10" showgrid="false" objecttolerance="10" inkscape:cy="64" gridspacingy="4px" gridempspacing="2" pagecolor="#ffffff" showborder="false" inkscape:cx="64" borderopacity="1.0" gridspacingx="4px" bordercolor="#666666" inkscape:window-y="0" inkscape:window-x="0" inkscape:window-width="747" inkscape:window-height="741" inkscape:pageshadow="2" inkscape:pageopacity="0.0" inkscape:grid-bbox="true" inkscape:document-units="px" inkscape:current-layer="layer1">
	</sodipodi:namedview>
<g id="layer1" inkscape:label="Layer 1" inkscape:groupmode="layer">
	<g id="g10960">
		<g>
			<defs>
				<rect id="SVGID_1_" x="-32" y="-16" width="192" height="56"/>
			</defs>
			<clipPath id="SVGID_2_">
				<use xlink:href="#SVGID_1_"  overflow="visible"/>
			</clipPath>
		</g>
	</g>
	<g>
		<defs>
			<rect id="SVGID_3_" x="-2" y="40" width="132" height="92"/>
		</defs>
		<clipPath id="SVGID_4_">
			<use xlink:href="#SVGID_3_"  overflow="visible"/>
		</clipPath>
		
			<g id="rect9637" sodipodi:nodetypes="cccccc" opacity="0.5" clip-path="url(#SVGID_4_)" filter="url(#filter9643)" enable-background="new    ">
			<path d="M2,6.066h124v97.794c-6.418,7.981-13.102,15.698-21.125,22.073H2V6.066z"/>
		</g>
	</g>
	<path id="rect8666" sodipodi:nodetypes="cccccc" fill="#FFFFFF" d="M4,8h120v96.063L104.469,124H4V8z"/>
	
		<linearGradient id="rect10972_1_" gradientUnits="userSpaceOnUse" x1="-39.4072" y1="77.8848" x2="-35.2956" y2="-68.5827" gradientTransform="matrix(1 0 0 -1 102.3999 108.0098)">
		<stop  offset="0" style="stop-color:#FFFFFF"/>
		<stop  offset="1" style="stop-color:#EEEEEE"/>
	</linearGradient>
	<path id="rect10972" sodipodi:nodetypes="cccccc" fill="url(#rect10972_1_)" d="M6.028,10.028h115.943v95.05l-17.097,16.894H6.028
		V10.028z"/>
	<radialGradient id="rect3092_1_" cx="64" cy="26.5" r="41.0122" gradientUnits="userSpaceOnUse">
		<stop  offset="0.0116" style="stop-color:#B9D2FF"/>
		<stop  offset="1" style="stop-color:#1D58AF"/>
	</radialGradient>
	<rect id="rect3092" x="5" y="10" fill="url(#rect3092_1_)" stroke="#0032DF" stroke-miterlimit="10" width="118" height="30"/>
	<g id="g10681" transform="translate(17.768621,9.0142631)">
		<g id="g10169" transform="translate(-0.2091921,-0.303999)">
			<g id="g3114" transform="translate(-10.328809,8.1249992)" opacity="0.8">
				
					<ellipse id="ellipse3116" sodipodi:cy="7.5619998" sodipodi:cx="87.720001" sodipodi:rx="0.396" sodipodi:ry="0.602" fill="#FFFFFF" stroke="#FFFFFF" stroke-width="1.2" stroke-opacity="0.8434" cx="87.721" cy="7.562" rx="0.396" ry="0.602">
				</ellipse>
			</g>
			<g id="g3118" transform="translate(-10.328809,8.1249992)" opacity="0.8">
				<g id="g3120">
					
						<ellipse id="ellipse3122" sodipodi:cy="9.5620003" sodipodi:cx="87.460999" sodipodi:rx="0.76099998" sodipodi:ry="0.60100001" fill="#FFFFFF" stroke="#FFFFFF" stroke-width="1.2" stroke-opacity="0.8434" cx="87.461" cy="9.562" rx="0.762" ry="0.601">
					</ellipse>
				</g>
			</g>
			<g id="g3124" transform="translate(-10.328809,8.1249992)" opacity="0.8">
				<g id="g3126">
					
						<ellipse id="ellipse3128" sodipodi:cy="11.568" sodipodi:cx="87.392998" sodipodi:rx="0.85799998" sodipodi:ry="0.611" fill="#FFFFFF" stroke="#FFFFFF" stroke-width="1.2" stroke-opacity="0.8434" cx="87.392" cy="11.568" rx="0.858" ry="0.611">
					</ellipse>
				</g>
			</g>
			<g id="g3130" transform="translate(-10.328809,8.1249992)" opacity="0.8">
				<g id="g3132">
					
						<ellipse id="ellipse3134" sodipodi:cy="13.574" sodipodi:cx="87.405998" sodipodi:rx="0.83899999" sodipodi:ry="0.61900002" fill="#FFFFFF" stroke="#FFFFFF" stroke-width="1.2" stroke-opacity="0.8434" cx="87.406" cy="13.574" rx="0.839" ry="0.619">
					</ellipse>
				</g>
			</g>
			<g id="g3136" transform="translate(-10.328809,8.1249992)" opacity="0.8">
				
					<ellipse id="ellipse3138" sodipodi:cy="7.546" sodipodi:cx="77.855003" sodipodi:rx="0.19" sodipodi:ry="0.579" fill="#FFFFFF" stroke="#FFFFFF" stroke-width="1.2" stroke-opacity="0.8434" cx="77.855" cy="7.546" rx="0.189" ry="0.579">
				</ellipse>
			</g>
			<g id="g3140" transform="translate(-10.328809,8.1249992)" opacity="0.8">
				
					<ellipse id="ellipse3142" sodipodi:cy="7.5619998" sodipodi:cx="79.714996" sodipodi:rx="0.38999999" sodipodi:ry="0.602" fill="#FFFFFF" stroke="#FFFFFF" stroke-width="1.2" stroke-opacity="0.8434" cx="79.715" cy="7.562" rx="0.391" ry="0.602">
				</ellipse>
			</g>
			<g id="g3144" transform="translate(-10.328809,8.1249992)" opacity="0.8">
				
					<ellipse id="ellipse3146" sodipodi:cy="7.5619998" sodipodi:cx="81.752998" sodipodi:rx="0.352" sodipodi:ry="0.60100001" fill="#FFFFFF" stroke="#FFFFFF" stroke-width="1.2" stroke-opacity="0.8434" cx="81.753" cy="7.562" rx="0.353" ry="0.601">
				</ellipse>
			</g>
			<g id="g3148" transform="translate(-10.328809,8.1249992)" opacity="0.8">
				
					<ellipse id="ellipse3150" sodipodi:cy="7.559" sodipodi:cx="83.650002" sodipodi:rx="0.42699999" sodipodi:ry="0.59799999" fill="#FFFFFF" stroke="#FFFFFF" stroke-width="1.2" stroke-opacity="0.8434" cx="83.65" cy="7.559" rx="0.427" ry="0.598">
				</ellipse>
			</g>
			<g id="g3152" transform="translate(-10.328809,8.1249992)" opacity="0.8">
				
					<ellipse id="ellipse3154" sodipodi:cy="7.5619998" sodipodi:cx="85.726997" sodipodi:rx="0.36000001" sodipodi:ry="0.60100001" fill="#FFFFFF" stroke="#FFFFFF" stroke-width="1.2" stroke-opacity="0.8434" cx="85.726" cy="7.562" rx="0.361" ry="0.601">
				</ellipse>
			</g>
			<g id="g3156" transform="translate(-10.328809,8.1249992)" opacity="0.8">
				
					<ellipse id="ellipse3158" sodipodi:cy="9.5640001" sodipodi:cx="75.716003" sodipodi:rx="0.38299999" sodipodi:ry="0.60500002" fill="#FFFFFF" stroke="#FFFFFF" stroke-width="1.2" stroke-opacity="0.8434" cx="75.717" cy="9.564" rx="0.383" ry="0.605">
				</ellipse>
			</g>
			<g id="g3160" transform="translate(-10.328809,8.1249992)" opacity="0.8">
				
					<ellipse id="ellipse3162" sodipodi:cy="9.5679998" sodipodi:cx="77.709999" sodipodi:rx="0.396" sodipodi:ry="0.611" fill="#FFFFFF" stroke="#FFFFFF" stroke-width="1.2" stroke-opacity="0.8434" cx="77.71" cy="9.568" rx="0.396" ry="0.611">
				</ellipse>
			</g>
			<g id="g3164" transform="translate(-10.328809,8.1249992)" opacity="0.8">
				
					<ellipse id="ellipse3166" sodipodi:cy="9.5620003" sodipodi:cx="79.716003" sodipodi:rx="0.38699999" sodipodi:ry="0.60299999" fill="#FFFFFF" stroke="#FFFFFF" stroke-width="1.2" stroke-opacity="0.8434" cx="79.717" cy="9.562" rx="0.387" ry="0.603">
				</ellipse>
			</g>
			<g id="g3168" transform="translate(-10.328809,8.1249992)" opacity="0.8">
				<g id="g3170">
					
						<ellipse id="ellipse3172" sodipodi:cy="9.5620003" sodipodi:cx="81.436996" sodipodi:rx="0.79900002" sodipodi:ry="0.602" fill="#FFFFFF" stroke="#FFFFFF" stroke-width="1.2" stroke-opacity="0.8434" cx="81.437" cy="9.562" rx="0.799" ry="0.602">
					</ellipse>
				</g>
			</g>
			<g id="g3174" transform="translate(-10.328809,8.1249992)" opacity="0.8">
				<g id="g3176">
					
						<ellipse id="ellipse3178" sodipodi:cy="9.5459995" sodipodi:cx="83.492996" sodipodi:rx="0.64899999" sodipodi:ry="0.579" fill="#FFFFFF" stroke="#FFFFFF" stroke-width="1.2" stroke-opacity="0.8434" cx="83.493" cy="9.546" rx="0.649" ry="0.579">
					</ellipse>
				</g>
			</g>
			<g id="g3180" transform="translate(-10.328809,8.1249992)" opacity="0.8">
				<g id="g3182">
					
						<ellipse id="ellipse3184" sodipodi:cy="9.5620003" sodipodi:cx="85.422997" sodipodi:rx="0.79000002" sodipodi:ry="0.602" fill="#FFFFFF" stroke="#FFFFFF" stroke-width="1.2" stroke-opacity="0.8434" cx="85.424" cy="9.562" rx="0.789" ry="0.602">
					</ellipse>
				</g>
			</g>
			<g id="g3186" transform="translate(-10.328809,8.1249992)" opacity="0.8">
				<g id="g3188">
					
						<ellipse id="ellipse3190" sodipodi:cy="11.559" sodipodi:cx="75.419998" sodipodi:rx="0.80199999" sodipodi:ry="0.59799999" fill="#FFFFFF" stroke="#FFFFFF" stroke-width="1.2" stroke-opacity="0.8434" cx="75.42" cy="11.559" rx="0.803" ry="0.598">
					</ellipse>
				</g>
			</g>
			<g id="g3192" transform="translate(-10.328809,8.1249992)" opacity="0.8">
				<g id="g3194">
					
						<ellipse id="ellipse3196" sodipodi:cy="11.562" sodipodi:cx="77.447998" sodipodi:rx="0.76700002" sodipodi:ry="0.60100001" fill="#FFFFFF" stroke="#FFFFFF" stroke-width="1.2" stroke-opacity="0.8434" cx="77.448" cy="11.562" rx="0.767" ry="0.601">
					</ellipse>
				</g>
			</g>
			<g id="g3198" transform="translate(-10.328809,8.1249992)" opacity="0.8">
				<g id="g3200">
					
						<ellipse id="ellipse3202" sodipodi:cy="11.562" sodipodi:cx="79.432999" sodipodi:rx="0.78799999" sodipodi:ry="0.602" fill="#FFFFFF" stroke="#FFFFFF" stroke-width="1.2" stroke-opacity="0.8434" cx="79.433" cy="11.562" rx="0.787" ry="0.602">
					</ellipse>
				</g>
			</g>
			<g id="g3204" transform="translate(-10.328809,8.1249992)" opacity="0.8">
				<g id="g3206">
					
						<ellipse id="ellipse3208" sodipodi:cy="11.564" sodipodi:cx="81.449997" sodipodi:rx="0.78200001" sodipodi:ry="0.60500002" fill="#FFFFFF" stroke="#FFFFFF" stroke-width="1.2" stroke-opacity="0.8434" cx="81.45" cy="11.564" rx="0.782" ry="0.605">
					</ellipse>
				</g>
			</g>
			<g id="g3210" transform="translate(-10.328809,8.1249992)" opacity="0.8">
				<g id="g3212">
					
						<ellipse id="ellipse3214" sodipodi:cy="11.568" sodipodi:cx="83.392998" sodipodi:rx="0.792" sodipodi:ry="0.611" fill="#FFFFFF" stroke="#FFFFFF" stroke-width="1.2" stroke-opacity="0.8434" cx="83.392" cy="11.568" rx="0.793" ry="0.611">
					</ellipse>
				</g>
			</g>
			<g id="g3216" transform="translate(-10.328809,8.1249992)" opacity="0.8">
				<g id="g3218">
					
						<ellipse id="ellipse3220" sodipodi:cy="11.562" sodipodi:cx="85.420998" sodipodi:rx="0.792" sodipodi:ry="0.60299999" fill="#FFFFFF" stroke="#FFFFFF" stroke-width="1.2" stroke-opacity="0.8434" cx="85.422" cy="11.562" rx="0.791" ry="0.603">
					</ellipse>
				</g>
			</g>
			<g id="g3222" transform="translate(-10.328809,8.1249992)" opacity="0.8">
				<g id="g3224">
					
						<ellipse id="ellipse3226" sodipodi:cy="13.562" sodipodi:cx="75.486" sodipodi:rx="0.708" sodipodi:ry="0.602" fill="#FFFFFF" stroke="#FFFFFF" stroke-width="1.2" stroke-opacity="0.8434" cx="75.486" cy="13.562" rx="0.708" ry="0.602">
					</ellipse>
				</g>
			</g>
			<g id="g3228" transform="translate(-10.328809,8.1249992)" opacity="0.8">
				<g id="g3230">
					
						<ellipse id="ellipse3232" sodipodi:cy="13.562" sodipodi:cx="77.390999" sodipodi:rx="0.84899998" sodipodi:ry="0.602" fill="#FFFFFF" stroke="#FFFFFF" stroke-width="1.2" stroke-opacity="0.8434" cx="77.39" cy="13.562" rx="0.85" ry="0.602">
					</ellipse>
				</g>
			</g>
			<g id="g3234" transform="translate(-10.328809,8.1249992)" opacity="0.8">
				<g id="g3236">
					
						<ellipse id="ellipse3238" sodipodi:cy="13.568" sodipodi:cx="79.411003" sodipodi:rx="0.81900001" sodipodi:ry="0.61000001" fill="#FFFFFF" stroke="#FFFFFF" stroke-width="1.2" stroke-opacity="0.8434" cx="79.411" cy="13.568" rx="0.819" ry="0.61">
					</ellipse>
				</g>
			</g>
			<g id="g3240" transform="translate(-10.328809,8.1249992)" opacity="0.8">
				<g id="g3242">
					
						<ellipse id="ellipse3244" sodipodi:cy="13.567" sodipodi:cx="81.394997" sodipodi:rx="0.86000001" sodipodi:ry="0.60900003" fill="#FFFFFF" stroke="#FFFFFF" stroke-width="1.2" stroke-opacity="0.8434" cx="81.394" cy="13.567" rx="0.861" ry="0.609">
					</ellipse>
				</g>
			</g>
			<g id="g3246" transform="translate(-10.328809,8.1249992)" opacity="0.8">
				<g id="g3248">
					
						<ellipse id="ellipse3250" sodipodi:cy="13.57" sodipodi:cx="83.370003" sodipodi:rx="0.82499999" sodipodi:ry="0.61199999" fill="#FFFFFF" stroke="#FFFFFF" stroke-width="1.2" stroke-opacity="0.8434" cx="83.37" cy="13.57" rx="0.825" ry="0.612">
					</ellipse>
				</g>
			</g>
			<g id="g3252" transform="translate(-10.328809,8.1249992)" opacity="0.8">
				<g id="g3254">
					
						<ellipse id="ellipse3256" sodipodi:cy="13.568" sodipodi:cx="85.384003" sodipodi:rx="0.84600002" sodipodi:ry="0.611" fill="#FFFFFF" stroke="#FFFFFF" stroke-width="1.2" stroke-opacity="0.8434" cx="85.385" cy="13.568" rx="0.846" ry="0.611">
					</ellipse>
				</g>
			</g>
			<g id="g3258" transform="translate(-10.328809,8.1249992)" opacity="0.8">
				<g id="g3260">
					
						<ellipse id="ellipse3262" sodipodi:cy="15.568" sodipodi:cx="75.387001" sodipodi:rx="0.84899998" sodipodi:ry="0.61000001" fill="#FFFFFF" stroke="#FFFFFF" stroke-width="1.2" stroke-opacity="0.8434" cx="75.387" cy="15.568" rx="0.85" ry="0.61">
					</ellipse>
				</g>
			</g>
			<g id="g3264" transform="translate(-10.328809,8.1249992)" opacity="0.8">
				<g id="g3266">
					
						<ellipse id="ellipse3268" sodipodi:cy="15.568" sodipodi:cx="77.388" sodipodi:rx="0.85100001" sodipodi:ry="0.611" fill="#FFFFFF" stroke="#FFFFFF" stroke-width="1.2" stroke-opacity="0.8434" cx="77.389" cy="15.568" rx="0.851" ry="0.611">
					</ellipse>
				</g>
			</g>
			<g id="g3270" transform="translate(-10.328809,8.1249992)" opacity="0.8">
				<g id="g3272">
					
						<ellipse id="ellipse3274" sodipodi:cy="15.562" sodipodi:cx="79.387001" sodipodi:rx="0.85100001" sodipodi:ry="0.602" fill="#FFFFFF" stroke="#FFFFFF" stroke-width="1.2" stroke-opacity="0.8434" cx="79.387" cy="15.562" rx="0.852" ry="0.602">
					</ellipse>
				</g>
			</g>
			<g id="g3276" transform="translate(-10.328809,8.1249992)" opacity="0.8">
				<g id="g3278">
					
						<ellipse id="ellipse3280" sodipodi:cy="15.562" sodipodi:cx="81.507004" sodipodi:rx="0.70099998" sodipodi:ry="0.602" fill="#FFFFFF" stroke="#FFFFFF" stroke-width="1.2" stroke-opacity="0.8434" cx="81.508" cy="15.562" rx="0.7" ry="0.602">
					</ellipse>
				</g>
			</g>
		</g>
		<g id="g10595" transform="translate(16,-12)">
			<g id="g3282" transform="translate(-10.538001,7.8209992)" opacity="0.8">
				
					<ellipse id="ellipse3284" sodipodi:cy="19.562" sodipodi:cx="87.720001" sodipodi:rx="0.396" sodipodi:ry="0.602" fill="#FFFFFF" stroke="#FFFFFF" stroke-width="1.2" stroke-opacity="0.8434" cx="87.721" cy="19.562" rx="0.396" ry="0.602">
				</ellipse>
			</g>
			<g id="g3286" transform="translate(-10.538001,7.8209992)" opacity="0.8">
				<g id="g3288">
					
						<ellipse id="ellipse3290" sodipodi:cy="21.562" sodipodi:cx="87.460999" sodipodi:rx="0.76099998" sodipodi:ry="0.60100001" fill="#FFFFFF" stroke="#FFFFFF" stroke-width="1.2" stroke-opacity="0.8434" cx="87.461" cy="21.562" rx="0.762" ry="0.601">
					</ellipse>
				</g>
			</g>
			<g id="g3292" transform="translate(-10.538001,7.8209992)" opacity="0.8">
				<g id="g3294">
					
						<ellipse id="ellipse3296" sodipodi:cy="23.568001" sodipodi:cx="87.392998" sodipodi:rx="0.85799998" sodipodi:ry="0.611" fill="#FFFFFF" stroke="#FFFFFF" stroke-width="1.2" stroke-opacity="0.8434" cx="87.392" cy="23.568" rx="0.858" ry="0.611">
					</ellipse>
				</g>
			</g>
			<g id="g3298" transform="translate(-10.538001,7.8209992)" opacity="0.8">
				<g id="g3300">
					
						<ellipse id="ellipse3302" sodipodi:cy="25.573999" sodipodi:cx="87.405998" sodipodi:rx="0.83899999" sodipodi:ry="0.61900002" fill="#FFFFFF" stroke="#FFFFFF" stroke-width="1.2" stroke-opacity="0.8434" cx="87.406" cy="25.574" rx="0.839" ry="0.619">
					</ellipse>
				</g>
			</g>
			<g id="g3304" transform="translate(-10.538001,7.8209992)" opacity="0.8">
				
					<ellipse id="ellipse3306" sodipodi:cy="19.546" sodipodi:cx="77.855003" sodipodi:rx="0.19" sodipodi:ry="0.579" fill="#FFFFFF" stroke="#FFFFFF" stroke-width="1.2" stroke-opacity="0.8434" cx="77.855" cy="19.546" rx="0.189" ry="0.579">
				</ellipse>
			</g>
			<g id="g3308" transform="translate(-10.538001,7.8209992)" opacity="0.8">
				
					<ellipse id="ellipse3310" sodipodi:cy="19.562" sodipodi:cx="79.714996" sodipodi:rx="0.38999999" sodipodi:ry="0.602" fill="#FFFFFF" stroke="#FFFFFF" stroke-width="1.2" stroke-opacity="0.8434" cx="79.715" cy="19.562" rx="0.391" ry="0.602">
				</ellipse>
			</g>
			<g id="g3312" transform="translate(-10.538001,7.8209992)" opacity="0.8">
				
					<ellipse id="ellipse3314" sodipodi:cy="19.562" sodipodi:cx="81.752998" sodipodi:rx="0.498" sodipodi:ry="0.85000002" fill="#FFFFFF" stroke="#FFFFFF" stroke-width="1.2" stroke-opacity="0.8434" cx="81.753" cy="19.562" rx="0.498" ry="0.85">
				</ellipse>
			</g>
			<g id="g3316" transform="translate(-10.538001,7.8209992)" opacity="0.8">
				
					<ellipse id="ellipse3318" sodipodi:cy="19.559" sodipodi:cx="83.650002" sodipodi:rx="0.42699999" sodipodi:ry="0.59799999" fill="#FFFFFF" stroke="#FFFFFF" stroke-width="1.2" stroke-opacity="0.8434" cx="83.65" cy="19.559" rx="0.427" ry="0.598">
				</ellipse>
			</g>
			<g id="g3320" transform="translate(-10.538001,7.8209992)" opacity="0.8">
				
					<ellipse id="ellipse3322" sodipodi:cy="19.562" sodipodi:cx="85.726997" sodipodi:rx="0.36000001" sodipodi:ry="0.60100001" fill="#FFFFFF" stroke="#FFFFFF" stroke-width="1.2" stroke-opacity="0.8434" cx="85.726" cy="19.562" rx="0.36" ry="0.601">
				</ellipse>
			</g>
			<g id="g3324" transform="translate(-10.538001,7.8209992)" opacity="0.8">
				
					<ellipse id="ellipse3326" sodipodi:cy="21.563999" sodipodi:cx="75.716003" sodipodi:rx="0.38299999" sodipodi:ry="0.60500002" fill="#FFFFFF" stroke="#FFFFFF" stroke-width="1.2" stroke-opacity="0.8434" cx="75.717" cy="21.564" rx="0.383" ry="0.605">
				</ellipse>
			</g>
			<g id="g3328" transform="translate(-10.538001,7.8209992)" opacity="0.8">
				
					<ellipse id="ellipse3330" sodipodi:cy="21.568001" sodipodi:cx="77.709999" sodipodi:rx="0.396" sodipodi:ry="0.611" fill="#FFFFFF" stroke="#FFFFFF" stroke-width="1.2" stroke-opacity="0.8434" cx="77.71" cy="21.568" rx="0.396" ry="0.611">
				</ellipse>
			</g>
			<g id="g3332" transform="translate(-10.538001,7.8209992)" opacity="0.8">
				
					<ellipse id="ellipse3334" sodipodi:cy="21.562" sodipodi:cx="79.716003" sodipodi:rx="0.38699999" sodipodi:ry="0.60299999" fill="#FFFFFF" stroke="#FFFFFF" stroke-width="1.2" stroke-opacity="0.8434" cx="79.717" cy="21.562" rx="0.387" ry="0.603">
				</ellipse>
			</g>
			<g id="g3336" transform="translate(-10.538001,7.8209992)" opacity="0.8">
				<g id="g3338">
					
						<ellipse id="ellipse3340" sodipodi:cy="21.562" sodipodi:cx="81.436996" sodipodi:rx="0.79900002" sodipodi:ry="0.602" fill="#FFFFFF" stroke="#FFFFFF" stroke-width="1.2" stroke-opacity="0.8434" cx="81.437" cy="21.562" rx="0.799" ry="0.602">
					</ellipse>
				</g>
			</g>
			<g id="g3342" transform="translate(-10.538001,7.8209992)" opacity="0.8">
				<g id="g3344">
					
						<ellipse id="ellipse3346" sodipodi:cy="21.546" sodipodi:cx="83.492996" sodipodi:rx="0.64899999" sodipodi:ry="0.579" fill="#FFFFFF" stroke="#FFFFFF" stroke-width="1.2" stroke-opacity="0.8434" cx="83.493" cy="21.546" rx="0.649" ry="0.579">
					</ellipse>
				</g>
			</g>
			<g id="g3348" transform="translate(-10.538001,7.8209992)" opacity="0.8">
				<g id="g3350">
					
						<ellipse id="ellipse3352" sodipodi:cy="21.562" sodipodi:cx="85.422997" sodipodi:rx="0.79000002" sodipodi:ry="0.602" fill="#FFFFFF" stroke="#FFFFFF" stroke-width="1.2" stroke-opacity="0.8434" cx="85.424" cy="21.562" rx="0.789" ry="0.602">
					</ellipse>
				</g>
			</g>
			<g id="g3354" transform="translate(-10.538001,7.8209992)" opacity="0.8">
				<g id="g3356">
					
						<ellipse id="ellipse3358" sodipodi:cy="23.559" sodipodi:cx="75.419998" sodipodi:rx="0.80199999" sodipodi:ry="0.59799999" fill="#FFFFFF" stroke="#FFFFFF" stroke-width="1.2" stroke-opacity="0.8434" cx="75.42" cy="23.559" rx="0.803" ry="0.598">
					</ellipse>
				</g>
			</g>
			<g id="g3360" transform="translate(-10.538001,7.8209992)" opacity="0.8">
				<g id="g3362">
					
						<ellipse id="ellipse3364" sodipodi:cy="23.562" sodipodi:cx="77.447998" sodipodi:rx="0.76700002" sodipodi:ry="0.60100001" fill="#FFFFFF" stroke="#FFFFFF" stroke-width="1.2" stroke-opacity="0.8434" cx="77.448" cy="23.562" rx="0.767" ry="0.601">
					</ellipse>
				</g>
			</g>
			<g id="g3366" transform="translate(-10.538001,7.8209992)" opacity="0.8">
				<g id="g3368">
					
						<ellipse id="ellipse3370" sodipodi:cy="23.562" sodipodi:cx="79.432999" sodipodi:rx="0.78799999" sodipodi:ry="0.602" fill="#FFFFFF" stroke="#FFFFFF" stroke-width="1.2" stroke-opacity="0.8434" cx="79.433" cy="23.562" rx="0.787" ry="0.602">
					</ellipse>
				</g>
			</g>
			<g id="g3372" transform="translate(-10.538001,7.8209992)" opacity="0.8">
				<g id="g3374">
					
						<ellipse id="ellipse3376" sodipodi:cy="23.563999" sodipodi:cx="81.449997" sodipodi:rx="0.78200001" sodipodi:ry="0.60500002" fill="#FFFFFF" stroke="#FFFFFF" stroke-width="1.2" stroke-opacity="0.8434" cx="81.45" cy="23.564" rx="0.782" ry="0.605">
					</ellipse>
				</g>
			</g>
			<g id="g3378" transform="translate(-10.538001,7.8209992)" opacity="0.8">
				<g id="g3380">
					
						<ellipse id="ellipse3382" sodipodi:cy="23.568001" sodipodi:cx="83.392998" sodipodi:rx="0.792" sodipodi:ry="0.611" fill="#FFFFFF" stroke="#FFFFFF" stroke-width="1.2" stroke-opacity="0.8434" cx="83.392" cy="23.568" rx="0.793" ry="0.611">
					</ellipse>
				</g>
			</g>
			<g id="g3384" transform="translate(-10.538001,7.8209992)" opacity="0.8">
				<g id="g3386">
					
						<ellipse id="ellipse3388" sodipodi:cy="23.562" sodipodi:cx="85.420998" sodipodi:rx="0.792" sodipodi:ry="0.60299999" fill="#FFFFFF" stroke="#FFFFFF" stroke-width="1.2" stroke-opacity="0.8434" cx="85.422" cy="23.562" rx="0.791" ry="0.603">
					</ellipse>
				</g>
			</g>
			<g id="g3390" transform="translate(-10.538001,7.8209992)" opacity="0.8">
				<g id="g3392">
					
						<ellipse id="ellipse3394" sodipodi:cy="25.562" sodipodi:cx="75.486" sodipodi:rx="0.708" sodipodi:ry="0.602" fill="#FFFFFF" stroke="#FFFFFF" stroke-width="1.2" stroke-opacity="0.8434" cx="75.486" cy="25.562" rx="0.708" ry="0.602">
					</ellipse>
				</g>
			</g>
			<g id="g3396" transform="translate(-10.538001,7.8209992)" opacity="0.8">
				<g id="g3398">
					
						<ellipse id="ellipse3400" sodipodi:cy="25.562" sodipodi:cx="77.390999" sodipodi:rx="0.84899998" sodipodi:ry="0.602" fill="#FFFFFF" stroke="#FFFFFF" stroke-width="1.2" stroke-opacity="0.8434" cx="77.39" cy="25.562" rx="0.85" ry="0.602">
					</ellipse>
				</g>
			</g>
			<g id="g3402" transform="translate(-10.538001,7.8209992)" opacity="0.8">
				<g id="g3404">
					
						<ellipse id="ellipse3406" sodipodi:cy="25.568001" sodipodi:cx="79.411003" sodipodi:rx="0.81900001" sodipodi:ry="0.61000001" fill="#FFFFFF" stroke="#FFFFFF" stroke-width="1.2" stroke-opacity="0.8434" cx="79.411" cy="25.568" rx="0.819" ry="0.61">
					</ellipse>
				</g>
			</g>
			<g id="g3408" transform="translate(-10.538001,7.8209992)" opacity="0.8">
				<g id="g3410">
					
						<ellipse id="ellipse3412" sodipodi:cy="25.566999" sodipodi:cx="81.394997" sodipodi:rx="0.86000001" sodipodi:ry="0.60900003" fill="#FFFFFF" stroke="#FFFFFF" stroke-width="1.2" stroke-opacity="0.8434" cx="81.394" cy="25.567" rx="0.861" ry="0.609">
					</ellipse>
				</g>
			</g>
			<g id="g3414" transform="translate(-10.538001,7.8209992)" opacity="0.8">
				<g id="g3416">
					
						<ellipse id="ellipse3418" sodipodi:cy="25.57" sodipodi:cx="83.370003" sodipodi:rx="0.82499999" sodipodi:ry="0.61199999" fill="#FFFFFF" stroke="#FFFFFF" stroke-width="1.2" stroke-opacity="0.8434" cx="83.37" cy="25.57" rx="0.825" ry="0.612">
					</ellipse>
				</g>
			</g>
			<g id="g3420" transform="translate(-10.538001,7.8209992)" opacity="0.8">
				<g id="g3422">
					
						<ellipse id="ellipse3424" sodipodi:cy="25.568001" sodipodi:cx="85.384003" sodipodi:rx="0.84600002" sodipodi:ry="0.611" fill="#FFFFFF" stroke="#FFFFFF" stroke-width="1.2" stroke-opacity="0.8434" cx="85.385" cy="25.568" rx="0.846" ry="0.611">
					</ellipse>
				</g>
			</g>
			<g id="g3426" transform="translate(-10.538001,7.8209992)" opacity="0.8">
				<g id="g3428">
					
						<ellipse id="ellipse3430" sodipodi:cy="27.568001" sodipodi:cx="75.387001" sodipodi:rx="0.84899998" sodipodi:ry="0.61000001" fill="#FFFFFF" stroke="#FFFFFF" stroke-width="1.2" stroke-opacity="0.8434" cx="75.387" cy="27.568" rx="0.85" ry="0.61">
					</ellipse>
				</g>
			</g>
			<g id="g3432" transform="translate(-10.538001,7.8209992)" opacity="0.8">
				<g id="g3434">
					
						<ellipse id="ellipse3436" sodipodi:cy="27.568001" sodipodi:cx="77.388" sodipodi:rx="0.85100001" sodipodi:ry="0.611" fill="#FFFFFF" stroke="#FFFFFF" stroke-width="1.2" stroke-opacity="0.8434" cx="77.389" cy="27.568" rx="0.851" ry="0.611">
					</ellipse>
				</g>
			</g>
			<g id="g3438" transform="translate(-10.538001,7.8209992)" opacity="0.8">
				<g id="g3440">
					
						<ellipse id="ellipse3442" sodipodi:cy="27.562" sodipodi:cx="79.387001" sodipodi:rx="0.85100001" sodipodi:ry="0.602" fill="#FFFFFF" stroke="#FFFFFF" stroke-width="1.2" stroke-opacity="0.8434" cx="79.387" cy="27.562" rx="0.852" ry="0.602">
					</ellipse>
				</g>
			</g>
			<g id="g3444" transform="translate(-10.538001,7.8209992)" opacity="0.8">
				<g id="g3446">
					
						<ellipse id="ellipse3448" sodipodi:cy="27.562" sodipodi:cx="81.507004" sodipodi:rx="0.70099998" sodipodi:ry="0.602" fill="#FFFFFF" stroke="#FFFFFF" stroke-width="1.2" stroke-opacity="0.8434" cx="81.508" cy="27.562" rx="0.7" ry="0.602">
					</ellipse>
				</g>
			</g>
		</g>
	</g>
	<g id="g10941">
		<rect id="rect2842" x="24" y="64" fill="#DDDDDD" width="8" height="8"/>
		<rect id="rect2844" x="36" y="64" fill="#DDDDDD" width="8" height="8"/>
		<rect id="rect2846" x="48" y="64" fill="#DDDDDD" width="8" height="8"/>
		<rect id="rect2848" x="60" y="64" fill="#DDDDDD" width="8" height="8"/>
		<rect id="rect2850" x="72" y="64" fill="#DDDDDD" width="8" height="8"/>
		<rect id="rect2852" x="84" y="64" fill="#DDDDDD" width="8" height="8"/>
		<rect id="rect2854" x="96" y="64" fill="#DFBFFF" width="8" height="8"/>
		<rect id="rect2856" x="24" y="52" fill="#EEEEEE" width="8" height="8"/>
		<rect id="rect2858" x="36" y="52" fill="#DDDDDD" width="8" height="8"/>
		<rect id="rect2860" x="48" y="52" fill="#DDDDDD" width="8" height="8"/>
		<rect id="rect2862" x="60" y="52" fill="#DDDDDD" width="8" height="8"/>
		<rect id="rect2864" x="72" y="52" fill="#DDDDDD" width="8" height="8"/>
		<rect id="rect2866" x="84" y="52" fill="#DDDDDD" width="8" height="8"/>
		<rect id="rect2868" x="96" y="52" fill="#DFBFFF" width="8" height="8"/>
		<rect id="rect2870" x="24" y="76" fill="#DDDDDD" width="8" height="8"/>
		<rect id="rect2872" x="36" y="76" fill="#DDDDDD" width="8" height="8"/>
		<rect id="rect2874" x="48" y="76" fill="#DDDDDD" width="8" height="8"/>
		<rect id="rect2876" x="60" y="76" fill="#DDDDDD" width="8" height="8"/>
		<rect id="rect2878" x="72" y="76" fill="#DDDDDD" width="8" height="8"/>
		<rect id="rect2880" x="84" y="76" fill="#DDDDDD" width="8" height="8"/>
		<rect id="rect2882" x="96" y="76" fill="#DFBFFF" width="8" height="8"/>
		<rect id="rect2884" x="24" y="88" fill="#DDDDDD" width="8" height="8"/>
		<rect id="rect2886" x="36" y="88" fill="#DDDDDD" width="8" height="8"/>
		<rect id="rect2888" x="48" y="88" fill="#DDDDDD" width="8" height="8"/>
		<rect id="rect2890" x="60" y="88" fill="#DDDDDD" width="8" height="8"/>
		<rect id="rect2892" x="72" y="88" fill="#DDDDDD" width="8" height="8"/>
		<rect id="rect2894" x="84" y="88" fill="#DDDDDD" width="8" height="8"/>
		<rect id="rect2896" x="96" y="88" fill="#DFBFFF" width="8" height="8"/>
		<rect id="rect2898" x="24" y="100" fill="#DDDDDD" width="8" height="8"/>
		<rect id="rect2900" x="36" y="100" fill="#DDDDDD" width="8" height="8"/>
		<rect id="rect2902" x="48" y="100" fill="#DDDDDD" width="8" height="8"/>
		<rect id="rect2904" x="60" y="100" fill="#DDDDDD" width="8" height="8"/>
		<rect id="rect2906" x="72" y="100" fill="#EEEEEE" width="8" height="8"/>
		<rect id="rect2908" x="84" y="100" fill="#EEEEEE" width="8" height="8"/>
	</g>
	<g id="g10977">
		<g id="path11336" sodipodi:nodetypes="csccc" opacity="0.4859" filter="url(#filter11438)" enable-background="new    ">
			<path fill="#060606" d="M104.812,122.58c0,0,6.059-5.446,9.417-8.805c3.359-3.359,8.806-8.81,8.806-8.81s-6.774-1.1-17.294,0.929
				C104.117,115.4,104.812,122.58,104.812,122.58z"/>
		</g>
		
			<linearGradient id="path14523_1_" gradientUnits="userSpaceOnUse" x1="148.4697" y1="-229.9795" x2="137.4269" y2="-218.1695" gradientTransform="matrix(0.6107 0 0 -0.6107 27.5845 -22.1153)">
			<stop  offset="0" style="stop-color:#A2A2A2"/>
			<stop  offset="1" style="stop-color:#FFFFFF"/>
		</linearGradient>
		<path id="path14523" sodipodi:nodetypes="csccc" fill="url(#path14523_1_)" d="M104.144,123.986c0,0,7.276-6.055,10.635-9.414
			s9.413-10.635,9.413-10.635s-9.816,3.971-16.076,3.971C108.115,114.168,104.144,123.986,104.144,123.986z"/>
	</g>
	<g id="g10929">
		<g id="g10923">
			
				<radialGradient id="rect10887_3_" cx="-175.4619" cy="-137.4795" r="4.4686" gradientTransform="matrix(1.7135 0 0 -0.6139 404.579 -65.765)" gradientUnits="userSpaceOnUse">
				<stop  offset="0" style="stop-color:#000000"/>
				<stop  offset="1" style="stop-color:#006600"/>
			</radialGradient>
			<path id="rect10887_2_" fill="url(#rect10887_3_)" d="M112.451,18.637H95.396"/>
			
				<radialGradient id="rect10887_4_" cx="-168.5435" cy="-132.523" r="0" gradientTransform="matrix(1.7135 0 0 -0.6139 404.579 -65.765)" gradientUnits="userSpaceOnUse">
				<stop  offset="0" style="stop-color:#000000"/>
				<stop  offset="1" style="stop-color:#006600"/>
			</radialGradient>
			<path id="rect10887_1_" fill="url(#rect10887_4_)" d="M115.778,15.594"/>
			
				<linearGradient id="rect10889_1_" gradientUnits="userSpaceOnUse" x1="-78.3999" y1="152.33" x2="-78.3999" y2="162.4574" gradientTransform="matrix(1 0 0 -1.1648 182.3237 184.5672)">
				<stop  offset="0" style="stop-color:#FFFFFF"/>
				<stop  offset="1" style="stop-color:#555555"/>
			</linearGradient>
			<rect id="rect10889" x="95.924" y="0" fill="url(#rect10889_1_)" width="16" height="18.637"/>
			
				<linearGradient id="rect10905_1_" gradientUnits="userSpaceOnUse" x1="-78.3872" y1="108.2129" x2="-78.3872" y2="104.0097" gradientTransform="matrix(1 0 0 -1 182.3237 108.0097)">
				<stop  offset="0" style="stop-color:#000000"/>
				<stop  offset="1" style="stop-color:#000000;stop-opacity:0"/>
			</linearGradient>
			
				<rect id="rect10905" x="95.949" y="-0.203" opacity="0.452" fill="url(#rect10905_1_)" enable-background="new    " width="15.975" height="4.203"/>
			
				<linearGradient id="rect10909_1_" gradientUnits="userSpaceOnUse" x1="-78.3872" y1="741.1396" x2="-78.3872" y2="736.9365" gradientTransform="matrix(1 0 0 1.2896 182.3237 -937.1621)">
				<stop  offset="0" style="stop-color:#000000"/>
				<stop  offset="1" style="stop-color:#000000;stop-opacity:0"/>
			</linearGradient>
			
				<rect id="rect10909" x="95.949" y="13.186" opacity="0.6384" fill="url(#rect10909_1_)" enable-background="new    " width="15.975" height="5.42"/>
		</g>
		<g id="g10917">
			
				<linearGradient id="rect10865_1_" gradientUnits="userSpaceOnUse" x1="-78.3999" y1="152.33" x2="-78.3999" y2="162.4574" gradientTransform="matrix(1 0 0 -1.1648 102.3999 184.5672)">
				<stop  offset="0" style="stop-color:#FFFFFF"/>
				<stop  offset="1" style="stop-color:#555555"/>
			</linearGradient>
			<rect id="rect10865" x="16" y="0" fill="url(#rect10865_1_)" width="16" height="18.637"/>
			
				<linearGradient id="rect10895_1_" gradientUnits="userSpaceOnUse" x1="-78.3872" y1="108.2129" x2="-78.3872" y2="104.0097" gradientTransform="matrix(1 0 0 -1 102.3999 108.0097)">
				<stop  offset="0" style="stop-color:#000000"/>
				<stop  offset="1" style="stop-color:#000000;stop-opacity:0"/>
			</linearGradient>
			
				<rect id="rect10895" x="16.025" y="-0.203" opacity="0.452" fill="url(#rect10895_1_)" enable-background="new    " width="15.975" height="4.203"/>
			
				<linearGradient id="rect10913_1_" gradientUnits="userSpaceOnUse" x1="-78.3872" y1="741.1396" x2="-78.3872" y2="736.9365" gradientTransform="matrix(1 0 0 1.2896 102.1973 -937.1621)">
				<stop  offset="0" style="stop-color:#000000"/>
				<stop  offset="1" style="stop-color:#000000;stop-opacity:0"/>
			</linearGradient>
			
				<rect id="rect10913" x="15.822" y="13.186" opacity="0.6384" fill="url(#rect10913_1_)" enable-background="new    " width="15.975" height="5.42"/>
		</g>
	</g>
	<g id="g11004">
		
			<linearGradient id="rect10983_1_" gradientUnits="userSpaceOnUse" x1="-38.3999" y1="36.0097" x2="-38.3999" y2="27.9488" gradientTransform="matrix(1 0 0 -1 102.3999 108.0097)">
			<stop  offset="0" style="stop-color:#FF0000"/>
			<stop  offset="1" style="stop-color:#8C0000"/>
		</linearGradient>
		<rect id="rect10983" x="56" y="72" fill="url(#rect10983_1_)" width="16" height="16"/>
		<rect id="rect10981" x="60" y="76" opacity="0.9" fill="#FFFFFF" enable-background="new    " width="8" height="8"/>
	</g>
</g>
</svg>
